-0.99975 -0.010854 -0.019343
0.87204 0.36027 -0.3313
0.8369 0.43457 -0.33279
-0.99975 -0.010854 -0.019343
-0.99974 0.019371 -0.012073
-0.99974 0.019371 -0.012073
-0.99844 0.055771 -0.0015317
-0.99844 0.055771 -0.0015317
-0.99528 0.096256 0.012249
-0.99528 0.096256 0.012249
-0.98962 0.14064 0.029398
-0.98962 0.14064 0.029398
-0.98175 0.18363 0.049528
-0.98175 0.18363 0.049528
-0.96927 0.23498 0.072805
-0.96927 0.23498 0.072805
-0.9527 0.28742 0.098755
-0.9527 0.28742 0.098755
-0.9309 0.34243 0.12717
-0.9309 0.34243 0.12717
-0.904 0.39773 0.15683
-0.904 0.39773 0.15683
-0.86743 0.46034 0.18882
-0.86743 0.46034 0.18882
0.62182 0.055971 -0.78116
0.62182 0.055971 -0.78116
0.56256 0.096929 -0.82106
0.56256 0.096929 -0.82106
-0.68708 0.2903 0.66607
-0.68708 0.2903 0.66607
-0.61605 0.28845 0.73299
-0.61605 0.28845 0.73299
-0.53343 0.28188 0.79749
-0.53343 0.28188 0.79749
-0.44073 0.27043 0.85594
-0.44073 0.27043 0.85594
-0.33476 0.25564 0.90696
-0.33476 0.25564 0.90696
-0.21999 0.23727 0.94621
-0.095026 0.21655 0.97164
-0.095026 0.21655 0.97164
0.037515 0.19449 0.98019
0.037515 0.19449 0.98019
0.17089 0.17228 0.97011
0.17089 0.17228 0.97011
0.30123 0.15114 0.9415
0.30123 0.15114 0.9415
0.4224 0.13221 0.89672
0.4224 0.13221 0.89672
0.53331 0.11605 0.83792
0.53331 0.11605 0.83792
0.63077 0.10306 0.7691
0.63077 0.10306 0.7691
0.71212 0.093471 0.6958
0.71212 0.093471 0.6958
0.58259 0.80299 0.12569
0.58259 0.80299 0.12569
0.63452 0.75724 0.15485
0.63452 0.75724 0.15485
0.68191 0.71133 0.17034
0.68191 0.71133 0.17034
-0.90949 -0.092889 -0.40522
-0.90949 -0.092889 -0.40522
-0.93482 -0.093573 -0.34258
-0.93482 -0.093573 -0.34258
-0.95256 -0.095076 -0.2891
-0.95256 -0.095076 -0.2891
-0.9664 -0.09769 -0.23774
-0.9664 -0.09769 -0.23774
-0.97599 -0.10124 -0.19288
-0.97599 -0.10124 -0.19288
-0.98178 -0.10564 -0.15797
-0.98178 -0.10564 -0.15797
-0.98613 -0.11127 -0.12319
-0.98613 -0.11127 -0.12319
-0.98836 -0.11784 -0.09627
-0.98836 -0.11784 -0.09627
-0.98928 -0.12535 -0.074868
-0.98928 -0.12535 -0.074868
-0.98928 -0.13382 -0.058494
-0.98928 -0.13382 -0.058494
-0.98842 -0.14287 -0.051098
-0.98842 -0.14287 -0.051098
0.9848 0.16193 0.062821
0.9848 0.16193 0.062821
0.99254 0.11862 0.028072
0.99254 0.11862 0.028072
-0.99517 -0.09779 -0.0081675
-0.99517 -0.09779 -0.0081675
-0.99524 -0.096203 -0.015755
-0.99524 -0.096203 -0.015755
-0.99619 -0.084582 -0.021092
-0.99619 -0.084582 -0.021092
-0.99738 -0.068392 -0.023413
-0.99738 -0.068392 -0.023413
-0.99885 -0.042047 -0.023022
-0.99885 -0.042047 -0.023022
0.90217 0.28046 -0.32778
0.90217 0.28046 -0.32778
0.90403 0.27428 -0.32786
0.90403 0.27428 -0.32786
0.90465 0.27331 -0.32697
0.90465 0.27331 -0.32697
0.90295 0.27816 -0.32758
0.90295 0.27816 -0.32758
0.90453 0.27256 -0.32792
0.90453 0.27256 -0.32792
0.90375 0.27546 -0.32765
0.90375 0.27546 -0.32765
0.90365 0.27596 -0.32751
0.90365 0.27596 -0.32751
0.90394 0.27455 -0.3279
0.90394 0.27455 -0.3279
0.9024 0.27945 -0.328
0.9024 0.27945 -0.328
0.87626 0.36303 -0.31683
0.87626 0.36303 -0.31683
0.87839 0.36957 -0.30306
0.87839 0.36957 -0.30306
0.87864 0.37855 -0.29103
0.87864 0.37855 -0.29103
0.87956 0.38634 -0.27768
0.87956 0.38634 -0.27768
0.87715 0.39814 -0.26848
0.87715 0.39814 -0.26848
0.87522 0.40918 -0.25798
0.87522 0.40918 -0.25798
0.87024 0.42273 -0.25294
0.87024 0.42273 -0.25294
0.86498 0.43605 -0.24834
0.86498 0.43605 -0.24834
0.85904 0.44949 -0.24498
0.85904 0.44949 -0.24498
0.85183 0.46289 -0.24519
0.85183 0.46289 -0.24519
0.84413 0.47587 -0.24697
0.84413 0.47587 -0.24697
0.83589 0.48637 -0.25441
0.83589 0.48637 -0.25441
0.8275 0.49779 -0.25972
0.8275 0.49779 -0.25972
0.81919 0.507 -0.26811
0.81919 0.507 -0.26811
0.81102 0.51457 -0.27833
0.81102 0.51457 -0.27833
0.80321 0.52036 -0.28997
0.80321 0.52036 -0.28997
0.7968 0.52243 -0.3036
0.7968 0.52243 -0.3036
0.79079 0.52339 -0.31734
0.79079 0.52339 -0.31734
0.78508 0.52328 -0.33141
0.78508 0.52328 -0.33141
0.78181 0.51898 -0.3456
0.78181 0.51898 -0.3456
0.77913 0.51358 -0.35943
0.77913 0.51358 -0.35943
0.77803 0.50595 -0.3724
0.77803 0.50595 -0.3724
0.77813 0.49675 -0.38439
0.77813 0.49675 -0.38439
0.77978 0.4859 -0.39477
0.77978 0.4859 -0.39477
0.78234 0.47414 -0.4039
0.78234 0.47414 -0.4039
0.78634 0.4613 -0.41094
0.78634 0.4613 -0.41094
0.79199 0.44782 -0.41497
0.79199 0.44782 -0.41497
0.79799 0.4342 -0.41795
0.79799 0.4342 -0.41795
0.80553 0.42109 -0.41689
0.80553 0.42109 -0.41689
0.81284 0.40781 -0.41592
0.81284 0.40781 -0.41592
0.8214 0.39695 -0.40956
0.8214 0.39695 -0.40956
0.82972 0.38654 -0.40268
0.82972 0.38654 -0.40268
0.83799 0.37601 -0.39547
0.83799 0.37601 -0.39547
0.84615 0.36849 -0.38503
0.84615 0.36849 -0.38503
0.8535 0.36465 -0.37225
0.8535 0.36465 -0.37225
0.86064 0.36055 -0.3596
0.86064 0.36055 -0.3596
0.86629 0.36065 -0.34566
0.86629 0.36065 -0.34566
0.83856 0.43288 -0.33081
0.83856 0.43288 -0.33081
0.83634 0.43749 -0.33037
0.83634 0.43749 -0.33037
0.83403 0.44125 -0.33121
0.83403 0.44125 -0.33121
0.83556 0.43991 -0.3291
0.83556 0.43991 -0.3291
0.83645 0.43976 -0.32706
0.83645 0.43976 -0.32706
0.83569 0.44119 -0.32707
0.83569 0.44119 -0.32707
0.83593 0.44195 -0.32544
0.83593 0.44195 -0.32544
0.83693 0.44293 -0.32151
0.83693 0.44293 -0.32151
0.83578 0.44467 -0.3221
0.83578 0.44467 -0.3221
0.83472 0.4462 -0.3227
0.83472 0.4462 -0.3227
0.83344 0.44685 -0.32512
0.83344 0.44685 -0.32512
0.83264 0.44756 -0.32621
0.83264 0.44756 -0.32621
0.83198 0.44662 -0.32914
0.83198 0.44662 -0.32914
0.83118 0.44959 -0.32712
0.83118 0.44959 -0.32712
0.83055 0.44985 -0.32835
0.83055 0.44985 -0.32835
0.83042 0.44877 -0.33018
0.83042 0.44877 -0.33018
0.82912 0.45109 -0.33027
0.82912 0.45109 -0.33027
0.82815 0.45207 -0.33137
0.82815 0.45207 -0.33137
0.82941 0.44869 -0.33282
0.82941 0.44869 -0.33282
0.82779 0.45072 -0.33409
0.82779 0.45072 -0.33409
0.82898 0.44818 -0.33455
0.82898 0.44818 -0.33455
0.82744 0.44955 -0.33653
0.82744 0.44955 -0.33653
0.827 0.44919 -0.33807
0.827 0.44919 -0.33807
0.82807 0.44732 -0.33795
0.82807 0.44732 -0.33795
0.82784 0.44666 -0.33937
0.82784 0.44666 -0.33937
0.82863 0.44531 -0.33922
0.82863 0.44531 -0.33922
0.8287 0.44428 -0.34041
0.8287 0.44428 -0.34041
0.82956 0.44313 -0.33981
0.82956 0.44313 -0.33981
0.82991 0.44184 -0.34062
0.82991 0.44184 -0.34062
0.8307 0.44086 -0.33998
0.8307 0.44086 -0.33998
0.83133 0.43944 -0.34026
0.83133 0.43944 -0.34026
0.83212 0.43877 -0.33921
0.83212 0.43877 -0.33921
0.83289 0.43773 -0.33866
0.83289 0.43773 -0.33866
0.83281 0.4406 -0.33512
0.83281 0.4406 -0.33512
0.83433 0.43659 -0.33658
0.83433 0.43659 -0.33658
0.83603 0.43352 -0.33633
0.83603 0.43352 -0.33633
0.83632 0.43442 -0.33443
0.83632 0.43442 -0.33443
0.83143 0.44492 -0.33282
0.83143 0.44492 -0.33282
0.83445 0.43924 -0.3328
0.83445 0.43924 -0.3328
0.8304 0.44683 -0.33283
0.8304 0.44683 -0.33283
0.83276 0.44242 -0.33282
0.83276 0.44242 -0.33282
0.83296 0.44204 -0.33283
0.83296 0.44204 -0.33283
0.83113 0.44548 -0.33281
0.83113 0.44548 -0.33281
0.83386 0.44038 -0.33279
0.83386 0.44038 -0.33279
0.82956 0.44838 -0.33285
0.82956 0.44838 -0.33285
0.90453 0.27256 -0.32792
0.91293 0.36006 -0.19215
0.89229 0.42174 -0.16111
0.9848 0.16193 0.062821
0.89666 0.41099 -0.16458
0.86121 0.48346 -0.15679
0.87175 0.46442 -0.15611
0.842 0.29968 -0.44859
-0.95256 -0.095076 -0.2891
0.90375 0.27546 -0.32765
0.84192 0.5145 -0.16264
0.84486 0.30118 -0.44216
0.91907 0.31597 -0.23551
0.8038 0.56243 -0.19388
0.81935 0.3247 -0.47249
0.91926 0.31679 -0.23367
0.8275 0.49779 -0.25972
0.82913 0.31449 -0.46221
0.90997 0.28098 -0.30496
0.63452 0.75724 0.15485
-0.86743 0.46034 0.18882
0.91048 0.27929 -0.30498
0.79045 0.57476 -0.21177
0.79533 0.35782 -0.4893
-0.98962 0.14064 0.029398
0.71212 0.093471 0.6958
0.80553 0.42109 -0.41689
0.89808 0.26974 -0.34742
0.87468 0.27599 -0.39845
0.56256 0.096929 -0.82106
0.80321 0.52036 -0.28997
0.74571 0.59948 -0.29076
0.75146 0.43476 -0.49627
0.75499 0.42847 -0.49639
0.7368 0.59892 -0.31372
-0.99619 -0.084582 -0.021092
0.90479 0.38829 -0.17492
-0.98613 -0.11127 -0.12319
0.78634 0.4613 -0.41094
0.30123 0.15114 0.9415
0.8979 0.27404 -0.34448
-0.53343 0.28188 0.79749
0.89568 0.2744 -0.34995
0.72425 0.51088 -0.4631
0.77913 0.51358 -0.35943
0.77813 0.49675 -0.38439
0.72641 0.50055 -0.47093
0.037515 0.19449 0.98019
0.87839 0.36957 -0.30306
0.90648 0.2831 -0.31328
-0.21999 0.23727 0.94621
0.88325 0.27607 -0.37902
0.90394 0.27455 -0.3279
0.17089 0.17228 0.97011
0.4224 0.13221 0.89672
0.91702 0.33776 -0.21209
0.8868 0.2731 -0.37283
0.90567 0.38513 -0.17728
0.88486 0.43801 -0.15867
0.8572 0.49019 -0.15787
0.7968 0.52243 -0.3036
0.72965 0.59248 -0.34145
0.77803 0.50595 -0.3724
0.90403 0.27428 -0.32786
0.76689 0.59193 -0.24801
0.7791 0.38343 -0.49597
0.68191 0.71133 0.17034
0.80554 0.34394 -0.48251
0.81555 0.54859 -0.18418
0.83101 0.31245 -0.46022
-0.9664 -0.09769 -0.23774
0.85157 0.29203 -0.43537
0.91835 0.33006 -0.21841
0.91282 0.28626 -0.29122
-0.98842 -0.14287 -0.051098
0.89527 0.272 -0.35286
0.89151 0.27308 -0.36145
0.91075 0.27724 -0.30605
0.90963 0.27949 -0.30734
0.89663 0.27488 -0.34711
0.90217 0.28046 -0.32778
0.91075 0.27724 -0.30605
0.71673 0.56042 -0.41499
0.71673 0.56042 -0.41499
0.71673 0.56042 -0.41499
0.71513 0.55318 -0.42729
0.71513 0.55318 -0.42729
0.71622 0.56984 -0.40288
0.71513 0.55318 -0.42729
0.71513 0.55318 -0.42729
0.71855 0.54234 -0.43538
0.71855 0.54234 -0.43538
0.71886 0.53165 -0.44787
0.71637 0.56335 -0.41165
0.72107 0.52088 -0.45689
0.71886 0.53165 -0.44787
0.72107 0.52088 -0.45689
0.72222 0.50998 -0.46725
0.72785 0.49584 -0.47369
0.72222 0.50998 -0.46725
0.72785 0.49584 -0.47369
0.73038 0.48559 -0.48037
0.73781 0.46866 -0.4858
0.73038 0.48559 -0.48037
0.73781 0.46866 -0.4858
0.73906 0.4607 -0.49147
0.73781 0.46866 -0.4858
0.74744 0.44238 -0.49561
0.74744 0.44238 -0.49561
0.74744 0.44238 -0.49561
0.74744 0.44238 -0.49561
0.7587 0.41762 -0.49997
0.7587 0.41762 -0.49997
0.7587 0.41762 -0.49997
0.7587 0.41762 -0.49997
0.77198 0.39527 -0.4978
0.77198 0.39527 -0.4978
0.77198 0.39527 -0.4978
0.78269 0.37835 -0.49421
0.78524 0.37264 -0.4945
0.78524 0.37264 -0.4945
0.78524 0.37264 -0.4945
0.79633 0.35528 -0.48952
0.79936 0.35134 -0.48743
0.81109 0.33548 -0.47915
0.79936 0.35134 -0.48743
0.81109 0.33548 -0.47915
0.81373 0.33226 -0.47692
0.82572 0.31772 -0.46608
0.81373 0.33226 -0.47692
0.82572 0.31772 -0.46608
0.82776 0.31571 -0.46383
0.82572 0.31772 -0.46608
0.83982 0.30323 -0.45029
0.83982 0.30323 -0.45029
0.83982 0.30323 -0.45029
0.83982 0.30323 -0.45029
0.85298 0.29182 -0.43273
0.85298 0.29182 -0.43273
0.85298 0.29182 -0.43273
0.85298 0.29182 -0.43273
0.86521 0.28309 -0.41384
0.8541 0.29059 -0.43135
0.86521 0.28309 -0.41384
0.86521 0.28309 -0.41384
0.86453 0.28352 -0.41497
0.82776 0.31571 -0.46383
0.87593 0.27722 -0.39483
0.86453 0.28352 -0.41497
0.85194 0.29238 -0.43441
0.81373 0.33226 -0.47692
0.87593 0.27722 -0.39483
0.87602 0.27607 -0.39543
0.87602 0.27607 -0.39543
0.78524 0.37264 -0.4945
0.87593 0.27722 -0.39483
0.86588 0.28258 -0.41279
0.86588 0.28258 -0.41279
0.86588 0.28258 -0.41279
0.86588 0.28258 -0.41279
0.86638 0.28307 -0.41141
0.86638 0.28307 -0.41141
0.87713 0.27506 -0.39369
0.87713 0.27506 -0.39369
0.85509 0.29053 -0.42943
0.82572 0.31772 -0.46608
0.76246 0.41321 -0.4979
0.81109 0.33548 -0.47915
0.87602 0.27607 -0.39543
0.86399 0.28418 -0.41566
0.87713 0.27506 -0.39369
0.88543 0.27324 -0.37597
0.87688 0.27735 -0.39263
0.88622 0.27264 -0.37455
0.86638 0.28307 -0.41141
0.88625 0.27344 -0.37388
0.75003 0.43624 -0.49714
0.78269 0.37835 -0.49421
0.87713 0.27506 -0.39369
0.88543 0.27324 -0.37597
0.87923 0.27361 -0.38999
0.88622 0.27264 -0.37455
0.73038 0.48559 -0.48037
0.7687 0.39816 -0.50056
0.87508 0.28088 -0.39413
0.87508 0.28088 -0.39413
0.86547 0.2822 -0.41392
0.86399 0.28418 -0.41566
0.88622 0.27264 -0.37455
0.88622 0.27264 -0.37455
0.74441 0.448 -0.49512
0.86547 0.2822 -0.41392
0.85168 0.29335 -0.43426
0.72222 0.50998 -0.46725
0.72785 0.49584 -0.47369
0.87508 0.28088 -0.39413
0.88421 0.27603 -0.37679
0.71956 0.53399 -0.44395
0.87634 0.27826 -0.39319
0.88651 0.27563 -0.37166
0.88651 0.27563 -0.37166
0.88421 0.27603 -0.37679
0.88651 0.27563 -0.37166
0.86399 0.28418 -0.41566
0.85168 0.29335 -0.43426
0.85168 0.29335 -0.43426
0.83833 0.30255 -0.45351
0.83525 0.30912 -0.45476
0.83525 0.30912 -0.45476
0.83525 0.30912 -0.45476
0.82314 0.32073 -0.46859
0.87688 0.27735 -0.39263
0.87923 0.27361 -0.38999
0.86843 0.28112 -0.40841
0.71901 0.55314 -0.42079
0.71637 0.56335 -0.41165
0.71637 0.56335 -0.41165
0.71637 0.56335 -0.41165
0.71989 0.57798 -0.38431
0.71989 0.57798 -0.38431
0.71989 0.57798 -0.38431
0.71989 0.57798 -0.38431
0.7252 0.58918 -0.35631
0.7252 0.58918 -0.35631
0.7252 0.58918 -0.35631
0.72042 0.5827 -0.37611
0.72442 0.59447 -0.34903
0.72442 0.59447 -0.34903
0.72442 0.59447 -0.34903
0.7337 0.5961 -0.32611
0.73286 0.59955 -0.32164
0.7337 0.5961 -0.32611
0.73286 0.59955 -0.32164
0.74126 0.60171 -0.29746
0.74279 0.60062 -0.29582
0.74126 0.60171 -0.29746
0.75358 0.59646 -0.27631
0.75358 0.59646 -0.27631
0.75358 0.59646 -0.27631
0.75895 0.59731 -0.25926
0.76627 0.59094 -0.25224
0.76627 0.59094 -0.25224
0.76627 0.59094 -0.25224
0.76627 0.59094 -0.25224
0.7759 0.58674 -0.23177
0.77848 0.58411 -0.22975
0.7759 0.58674 -0.23177
0.78923 0.57596 -0.21305
0.78923 0.57596 -0.21305
0.78923 0.57596 -0.21305
0.80069 0.56504 -0.19908
0.80357 0.56191 -0.19631
0.80069 0.56504 -0.19908
0.81483 0.5496 -0.18439
0.80069 0.56504 -0.19908
0.81483 0.5496 -0.18439
0.81207 0.55239 -0.18818
0.81483 0.5496 -0.18439
0.82585 0.53612 -0.17479
0.82585 0.53612 -0.17479
0.82585 0.53612 -0.17479
0.84 0.51686 -0.16512
0.83639 0.522 -0.16724
0.84 0.51686 -0.16512
0.85006 0.50177 -0.16009
0.85006 0.50177 -0.16009
0.85006 0.50177 -0.16009
0.85006 0.50177 -0.16009
0.85391 0.49562 -0.15876
0.86331 0.47991 -0.15616
0.86331 0.47991 -0.15616
0.86331 0.47991 -0.15616
0.87181 0.46452 -0.15543
0.87181 0.46452 -0.15543
0.87181 0.46452 -0.15543
0.88334 0.44168 -0.15697
0.87575 0.45705 -0.15547
0.88334 0.44168 -0.15697
0.88334 0.44168 -0.15697
0.88334 0.44168 -0.15697
0.89003 0.42682 -0.16022
0.89364 0.41846 -0.16219
0.89364 0.41846 -0.16219
0.89364 0.41846 -0.16219
0.89924 0.40425 -0.16714
0.90248 0.39539 -0.17088
0.90248 0.39539 -0.17088
0.90248 0.39539 -0.17088
0.90683 0.38225 -0.17761
0.90683 0.38225 -0.17761
0.90944 0.37336 -0.18307
0.90944 0.37336 -0.18307
0.91283 0.361 -0.19083
0.91283 0.361 -0.19083
0.91483 0.35214 -0.19772
0.91483 0.35214 -0.19772
0.91283 0.361 -0.19083
0.91686 0.34133 -0.20702
0.91483 0.35214 -0.19772
0.91807 0.33285 -0.2153
0.91686 0.34133 -0.20702
0.91807 0.33285 -0.2153
0.91891 0.32359 -0.22561
0.91891 0.32359 -0.22561
0.91891 0.32359 -0.22561
0.91921 0.31523 -0.23599
0.91823 0.33144 -0.21679
0.85391 0.49562 -0.15876
0.91921 0.31523 -0.23599
0.91896 0.30822 -0.24601
0.91921 0.31523 -0.23599
0.82932 0.5316 -0.17215
0.91896 0.30822 -0.24601
0.91896 0.30822 -0.24601
0.87181 0.46452 -0.15543
0.81483 0.5496 -0.18439
0.91714 0.2952 -0.2678
0.91814 0.30142 -0.25722
0.91814 0.30142 -0.25722
0.91814 0.30142 -0.25722
0.91814 0.30142 -0.25722
0.91729 0.29547 -0.26697
0.91895 0.3085 -0.24569
0.91729 0.29547 -0.26697
0.91822 0.30124 -0.25716
0.83639 0.522 -0.16724
0.91822 0.30124 -0.25716
0.81207 0.55239 -0.18818
0.91895 0.3085 -0.24569
0.91928 0.31652 -0.23395
0.91928 0.31652 -0.23395
0.79214 0.57329 -0.20942
0.91814 0.30164 -0.25699
0.91714 0.2952 -0.2678
0.91814 0.30164 -0.25699
0.87961 0.44934 -0.15613
0.86802 0.47148 -0.15575
0.87961 0.44934 -0.15613
0.91668 0.34321 -0.2047
0.8872 0.43329 -0.15851
0.77848 0.58411 -0.22975
0.80069 0.56504 -0.19908
0.91928 0.31652 -0.23395
0.91928 0.31652 -0.23395
0.91926 0.30795 -0.24522
0.9143 0.29121 -0.28152
0.86802 0.47148 -0.15575
0.86802 0.47148 -0.15575
0.87583 0.45666 -0.15616
0.78702 0.5784 -0.2146
0.7759 0.58674 -0.23177
0.91562 0.28924 -0.27924
0.91562 0.28924 -0.27924
0.91714 0.2955 -0.26748
0.91714 0.2955 -0.26748
0.91714 0.2955 -0.26748
0.91507 0.2918 -0.27837
0.91773 0.30251 -0.25741
0.91507 0.2918 -0.27837
0.91717 0.29587 -0.26695
0.91773 0.30251 -0.25741
0.75341 0.59881 -0.27167
0.75895 0.59731 -0.25926
0.74126 0.60171 -0.29746
0.91454 0.2834 -0.28862
0.91858 0.32634 -0.22298
0.91843 0.3347 -0.21085
0.91714 0.2952 -0.2678
0.87583 0.45666 -0.15616
0.87583 0.45666 -0.15616
0.88635 0.4347 -0.15944
0.88262 0.44364 -0.15544
0.88635 0.4347 -0.15944
0.8928 0.42045 -0.16167
0.8928 0.42045 -0.16167
0.8928 0.42045 -0.16167
0.90131 0.39875 -0.16925
0.87583 0.45666 -0.15616
0.89822 0.40733 -0.1652
0.90131 0.39875 -0.16925
0.90131 0.39875 -0.16925
0.90131 0.39875 -0.16925
0.90563 0.3868 -0.17386
0.90792 0.37817 -0.18075
0.90792 0.37817 -0.18075
0.90792 0.37817 -0.18075
0.912 0.36555 -0.18609
0.912 0.36555 -0.18609
0.91359 0.35788 -0.19308
0.91359 0.35788 -0.19308
0.91436 0.3495 -0.20446
0.91436 0.3495 -0.20446
0.91436 0.3495 -0.20446
0.91821 0.33036 -0.21854
0.91359 0.35788 -0.19308
0.91473 0.28931 -0.28207
0.91473 0.28931 -0.28207
0.87575 0.45705 -0.15547
0.87973 0.44933 -0.15552
0.87973 0.44933 -0.15552
0.87973 0.44933 -0.15552
0.87973 0.44933 -0.15552
0.88436 0.43995 -0.15606
0.89114 0.42486 -0.15924
0.87158 0.46541 -0.15407
0.88436 0.43995 -0.15606
0.89458 0.41602 -0.16329
0.89066 0.42528 -0.1608
0.89458 0.41602 -0.16329
0.89458 0.41602 -0.16329
0.89992 0.40125 -0.17073
0.90208 0.39774 -0.16749
0.90208 0.39774 -0.16749
0.89992 0.40125 -0.17073
0.90856 0.3783 -0.1772
0.90985 0.37235 -0.18314
0.90985 0.37235 -0.18314
0.90856 0.3783 -0.1772
0.87158 0.46541 -0.15407
0.87158 0.46541 -0.15407
0.85795 0.48938 -0.15629
0.86362 0.47942 -0.15598
0.85795 0.48938 -0.15629
0.85391 0.49562 -0.15876
0.86411 0.47878 -0.15518
0.85556 0.49295 -0.15815
0.86362 0.47942 -0.15598
0.84803 0.5049 -0.161
0.87799 0.4524 -0.15639
0.91937 0.30705 -0.24591
0.91907 0.31487 -0.23701
0.74279 0.60062 -0.29582
0.91287 0.28581 -0.29151
0.90985 0.37235 -0.18314
0.89014 0.42749 -0.15784
0.91858 0.32634 -0.22298
0.91723 0.33821 -0.21046
0.86411 0.47878 -0.15518
0.85198 0.49903 -0.15843
0.85556 0.49295 -0.15815
0.84237 0.51318 -0.16449
0.91359 0.35788 -0.19308
0.91714 0.33944 -0.2089
0.91843 0.3347 -0.21085
0.8961 0.41236 -0.16423
0.91907 0.31487 -0.23701
0.84237 0.51318 -0.16449
0.84237 0.51318 -0.16449
0.9193 0.32387 -0.22359
0.91843 0.3347 -0.21085
0.91821 0.33036 -0.21854
0.91398 0.35705 -0.19275
0.7337 0.5961 -0.32611
0.84803 0.5049 -0.161
0.84803 0.5049 -0.161
0.84803 0.5049 -0.161
0.83314 0.52638 -0.1697
0.83388 0.5259 -0.16755
0.83314 0.52638 -0.1697
0.83388 0.5259 -0.16755
0.82061 0.54296 -0.17833
0.91473 0.28931 -0.28207
0.91717 0.29587 -0.26695
0.91498 0.28269 -0.28792
0.91287 0.28581 -0.29151
0.91858 0.32634 -0.22298
0.91339 0.28693 -0.28878
0.91339 0.28693 -0.28878
0.91937 0.30705 -0.24591
0.91937 0.30705 -0.24591
0.86362 0.47942 -0.15598
0.72442 0.59447 -0.34903
0.91287 0.28581 -0.29151
0.90985 0.37235 -0.18314
0.91339 0.28693 -0.28878
0.91693 0.29538 -0.2683
0.91895 0.32265 -0.22677
0.90985 0.37235 -0.18314
0.91293 0.36006 -0.19215
0.91534 0.34966 -0.19974
0.81812 0.54566 -0.18148
0.81812 0.54566 -0.18148
0.82061 0.54296 -0.17833
0.8073 0.55758 -0.19334
0.8073 0.55758 -0.19334
0.8073 0.55758 -0.19334
0.79622 0.56919 -0.20506
0.79622 0.56919 -0.20506
0.91925 0.31571 -0.23518
0.91372 0.28725 -0.2874
0.91668 0.34321 -0.2047
0.8872 0.43329 -0.15851
0.84237 0.51318 -0.16449
0.83297 0.52604 -0.17156
0.83297 0.52604 -0.17156
0.83297 0.52604 -0.17156
0.83297 0.52604 -0.17156
0.81761 0.54718 -0.17921
0.85556 0.49295 -0.15815
0.82272 0.53946 -0.17924
0.81761 0.54718 -0.17921
0.80751 0.55758 -0.1924
0.80751 0.55758 -0.1924
0.80751 0.55758 -0.1924
0.91897 0.30787 -0.24641
0.91714 0.33944 -0.2089
0.91693 0.29538 -0.2683
0.91807 0.33285 -0.2153
0.72042 0.5827 -0.37611
0.91954 0.32082 -0.22698
0.91954 0.32082 -0.22698
0.86411 0.47878 -0.15518
0.89066 0.42528 -0.1608
0.89066 0.42528 -0.1608
0.85198 0.49903 -0.15843
0.91536 0.28628 -0.28313
0.80676 0.55909 -0.19119
0.90997 0.28098 -0.30496
0.90889 0.28334 -0.306
0.7224 0.58459 -0.36932
0.89196 0.27379 -0.35977
0.89196 0.27379 -0.35977
0.89094 0.27576 -0.36081
0.80751 0.55758 -0.1924
0.79854 0.56702 -0.20206
0.79269 0.57208 -0.21063
0.78799 0.57584 -0.2179
0.88486 0.43801 -0.15867
0.79622 0.56919 -0.20506
0.78215 0.58149 -0.22387
0.79045 0.57476 -0.21177
0.78215 0.58149 -0.22387
0.83388 0.5259 -0.16755
0.89094 0.27576 -0.36081
0.91855 0.29959 -0.25789
0.91855 0.29959 -0.25789
0.91855 0.29959 -0.25789
0.72425 0.51088 -0.4631
0.91629 0.29202 -0.27412
0.91498 0.28269 -0.28792
0.91498 0.28269 -0.28792
0.91498 0.28269 -0.28792
0.91067 0.36942 -0.18498
0.91067 0.36942 -0.18498
0.80357 0.56191 -0.19631
0.91576 0.34781 -0.20104
0.91576 0.34781 -0.20104
0.91398 0.35686 -0.19311
0.91668 0.34321 -0.2047
0.84383 0.51129 -0.16291
0.85795 0.48938 -0.15629
0.9143 0.29121 -0.28152
0.9143 0.29121 -0.28152
0.87961 0.44934 -0.15613
0.89003 0.42682 -0.16022
0.82272 0.53946 -0.17924
0.84383 0.51129 -0.16291
0.91807 0.33285 -0.2153
0.86724 0.473 -0.15549
0.91895 0.32265 -0.22677
0.91895 0.32265 -0.22677
0.91954 0.32082 -0.22698
0.83995 0.51767 -0.16279
0.91855 0.29959 -0.25789
0.82792 0.53386 -0.17191
0.82411 0.53866 -0.17516
0.89769 0.27481 -0.34442
0.84486 0.30118 -0.44216
0.91702 0.33776 -0.21209
0.81761 0.54718 -0.17921
0.77509 0.58741 -0.23279
0.76736 0.5931 -0.2437
0.72965 0.59248 -0.34145
0.81966 0.3235 -0.47276
0.81966 0.3235 -0.47276
0.81966 0.3235 -0.47276
0.80739 0.34082 -0.48162
0.82314 0.32073 -0.46859
0.81126 0.33334 -0.48036
0.80739 0.34082 -0.48162
0.90779 0.29207 -0.30103
0.91926 0.31679 -0.23367
0.91075 0.27724 -0.30605
0.91835 0.33006 -0.21841
0.86547 0.2822 -0.41392
0.85984 0.28571 -0.42313
0.78799 0.57584 -0.2179
0.78799 0.57584 -0.2179
0.77895 0.5832 -0.23047
0.77623 0.58648 -0.23131
0.8979 0.27404 -0.34448
0.88486 0.43801 -0.15867
0.89666 0.41099 -0.16458
0.90997 0.28098 -0.30496
0.8038 0.56243 -0.19388
0.91629 0.29202 -0.27412
0.79045 0.57476 -0.21177
0.84192 0.5145 -0.16264
0.7224 0.58459 -0.36932
0.71961 0.57051 -0.39582
0.89527 0.272 -0.35286
0.89663 0.27488 -0.34711
0.91629 0.29202 -0.27412
0.91859 0.30281 -0.25397
0.71901 0.55314 -0.42079
0.79269 0.57208 -0.21063
0.71709 0.54304 -0.4369
0.8733 0.27899 -0.3994
0.8733 0.27899 -0.3994
0.86198 0.28535 -0.41901
0.86843 0.28112 -0.40841
0.91293 0.36006 -0.19215
0.81126 0.33334 -0.48036
0.86198 0.28535 -0.41901
0.85595 0.28801 -0.42942
0.85157 0.29203 -0.43537
0.85595 0.28801 -0.42942
0.85595 0.28801 -0.42942
0.84425 0.30194 -0.44281
0.84425 0.30194 -0.44281
0.84425 0.30194 -0.44281
0.85509 0.29053 -0.42943
0.84305 0.29937 -0.44683
0.83229 0.31081 -0.45901
0.83229 0.31081 -0.45901
0.83229 0.31081 -0.45901
0.82954 0.31557 -0.46073
0.81776 0.32929 -0.47206
0.81776 0.32929 -0.47206
0.81776 0.32929 -0.47206
0.81776 0.32929 -0.47206
0.80554 0.34394 -0.48251
0.80377 0.34645 -0.48367
0.81602 0.33016 -0.47445
0.84305 0.29937 -0.44683
0.80377 0.34645 -0.48367
0.80377 0.34645 -0.48367
0.80214 0.34752 -0.4856
0.80214 0.34752 -0.4856
0.791 0.36432 -0.49152
0.791 0.36432 -0.49152
0.791 0.36432 -0.49152
0.77905 0.38172 -0.49737
0.77905 0.38172 -0.49737
0.77905 0.38172 -0.49737
0.78788 0.36698 -0.49453
0.83229 0.31081 -0.45901
0.76759 0.4032 -0.49823
0.76759 0.4032 -0.49823
0.76759 0.4032 -0.49823
0.76246 0.41321 -0.4979
0.77368 0.38937 -0.49982
0.75499 0.42847 -0.49639
0.75499 0.42847 -0.49639
0.79162 0.36344 -0.49117
0.81935 0.3247 -0.47249
0.76759 0.4032 -0.49823
0.7791 0.38343 -0.49597
0.77895 0.5832 -0.23047
0.77623 0.58648 -0.23131
0.76689 0.59193 -0.24801
0.76469 0.59381 -0.25027
0.81126 0.33334 -0.48036
0.71761 0.57586 -0.39169
0.71761 0.57586 -0.39169
0.72199 0.58725 -0.36588
0.72042 0.5827 -0.37611
0.72063 0.52231 -0.45594
0.71709 0.54304 -0.4369
0.72063 0.52231 -0.45594
0.72063 0.52231 -0.45594
0.72063 0.52231 -0.45594
0.72641 0.50055 -0.47093
0.72641 0.50055 -0.47093
-0.44073 0.27043 0.85594
0.73396 0.47587 -0.4846
0.73396 0.47587 -0.4846
0.73396 0.47587 -0.4846
0.74377 0.45219 -0.49228
0.73906 0.4607 -0.49147
0.74377 0.45219 -0.49228
0.74377 0.45219 -0.49228
0.74377 0.45219 -0.49228
0.74377 0.45219 -0.49228
0.72199 0.58725 -0.36588
0.72199 0.58725 -0.36588
0.72807 0.59522 -0.34003
0.72042 0.5827 -0.37611
0.71709 0.54304 -0.4369
0.90394 0.27455 -0.3279
0.72807 0.59522 -0.34003
0.72807 0.59522 -0.34003
0.73598 0.59953 -0.31447
0.73286 0.59955 -0.32164
0.90821 0.27965 -0.31138
0.73598 0.59953 -0.31447
0.73598 0.59953 -0.31447
0.53331 0.11605 0.83792
0.74571 0.59948 -0.29076
0.74571 0.59948 -0.29076
0.74571 0.59948 -0.29076
0.75341 0.59881 -0.27167
0.75606 0.59711 -0.26802
0.75606 0.59711 -0.26802
0.75003 0.43624 -0.49714
0.87864 0.37855 -0.29103
0.91926 0.31679 -0.23367
0.87468 0.27599 -0.39845
0.87468 0.27599 -0.39845
0.8868 0.2731 -0.37283
0.85984 0.28571 -0.42313
0.85984 0.28571 -0.42313
0.87715 0.39814 -0.26848
0.91702 0.33776 -0.21209
0.87522 0.40918 -0.25798
0.90567 0.38513 -0.17728
0.90567 0.38513 -0.17728
0.90208 0.39774 -0.16749
0.89666 0.41099 -0.16458
0.86498 0.43605 -0.24834
0.85904 0.44949 -0.24498
0.87175 0.46442 -0.15611
0.87175 0.46442 -0.15611
0.87175 0.46442 -0.15611
0.85183 0.46289 -0.24519
0.8572 0.49019 -0.15787
0.8572 0.49019 -0.15787
0.84413 0.47587 -0.24697
0.84192 0.5145 -0.16264
0.83799 0.37601 -0.39547
0.82913 0.31449 -0.46221
0.82411 0.53866 -0.17516
0.80676 0.55909 -0.19119
0.81919 0.507 -0.26811
0.8868 0.2731 -0.37283
0.81284 0.40781 -0.41592
0.79533 0.35782 -0.4893
0.77903 0.3809 -0.49802
0.79269 0.36196 -0.49055
0.77903 0.3809 -0.49802
0.77903 0.3809 -0.49802
0.7687 0.39816 -0.50056
0.76491 0.40836 -0.49815
0.76491 0.40836 -0.49815
0.76491 0.40836 -0.49815
0.76491 0.40836 -0.49815
0.75624 0.42364 -0.49863
0.75146 0.43476 -0.49627
0.75624 0.42364 -0.49863
0.75146 0.43476 -0.49627
0.74441 0.448 -0.49512
0.74441 0.448 -0.49512
0.73816 0.46185 -0.49175
0.73781 0.46866 -0.4858
0.73182 0.4862 -0.47754
0.73182 0.4862 -0.47754
0.73182 0.4862 -0.47754
0.77903 0.3809 -0.49802
0.91536 0.28628 -0.28313
0.91536 0.28628 -0.28313
0.76185 0.59405 -0.25825
0.76185 0.59405 -0.25825
0.74933 0.59745 -0.28559
0.75232 0.60061 -0.2707
0.76185 0.59405 -0.25825
0.74933 0.59745 -0.28559
0.74933 0.59745 -0.28559
0.75232 0.60061 -0.2707
0.74265 0.59929 -0.29888
0.7368 0.59892 -0.31372
0.79079 0.52339 -0.31734
0.7368 0.59892 -0.31372
0.78508 0.52328 -0.33141
0.72965 0.59248 -0.34145
0.76185 0.59405 -0.25825
0.74933 0.59745 -0.28559
0.71961 0.57051 -0.39582
0.77978 0.4859 -0.39477
0.72425 0.51088 -0.4631
0.71956 0.53399 -0.44395
0.71956 0.53399 -0.44395
0.72425 0.51088 -0.4631
0.78234 0.47414 -0.4039
-0.095026 0.21655 0.97164
0.71761 0.57586 -0.39169
0.80676 0.55909 -0.19119
0.7224 0.58459 -0.36932
0.78215 0.58149 -0.22387
0.74265 0.59929 -0.29888
0.91576 0.34781 -0.20104
0.91398 0.35686 -0.19311
0.912 0.36418 -0.18874
0.80357 0.56191 -0.19631
0.76469 0.59381 -0.25027
0.76469 0.59381 -0.25027
0.81812 0.54566 -0.18148
0.82932 0.5316 -0.17215
0.81483 0.5496 -0.18439
0.78702 0.5784 -0.2146
0.81109 0.33548 -0.47915
0.912 0.36418 -0.18874
0.912 0.36418 -0.18874
0.90543 0.38631 -0.17593
0.90543 0.38631 -0.17593
0.90543 0.38631 -0.17593
0.90248 0.39539 -0.17088
0.89726 0.40939 -0.16528
0.89726 0.40939 -0.16528
0.89726 0.40939 -0.16528
0.89726 0.40939 -0.16528
0.91576 0.34781 -0.20104
0.91576 0.34781 -0.20104
0.91895 0.32265 -0.22677
0.84383 0.51129 -0.16291
0.79854 0.56702 -0.20206
0.76246 0.41321 -0.4979
0.75003 0.43624 -0.49714
0.81207 0.55239 -0.18818
0.91534 0.34966 -0.19974
0.91534 0.34966 -0.19974
0.91283 0.361 -0.19083
0.91067 0.36942 -0.18498
0.91067 0.36942 -0.18498
0.9041 0.3906 -0.17331
0.9041 0.3906 -0.17331
0.90683 0.38225 -0.17761
0.91686 0.34133 -0.20702
0.83833 0.30255 -0.45351
0.77368 0.38937 -0.49982
0.91398 0.35686 -0.19311
0.80214 0.34752 -0.4856
0.83297 0.52604 -0.17156
0.85194 0.29238 -0.43441
0.85194 0.29238 -0.43441
0.85194 0.29238 -0.43441
0.8979 0.27404 -0.34448
0.89771 0.27353 -0.3454
0.90779 0.29207 -0.30103
0.91015 0.27549 -0.30942
0.91926 0.30795 -0.24522
0.91926 0.30795 -0.24522
0.91926 0.31679 -0.23367
0.88543 0.27324 -0.37597
0.89326 0.26858 -0.36048
0.89326 0.26858 -0.36048
0.89326 0.26858 -0.36048
0.89808 0.26974 -0.34742
0.88799 0.27061 -0.37181
0.89607 0.27203 -0.35079
0.88799 0.27061 -0.37181
0.89607 0.27203 -0.35079
0.88623 0.27371 -0.37375
0.8957 0.27359 -0.35053
0.88625 0.27344 -0.37388
0.8957 0.27359 -0.35053
0.88623 0.27371 -0.37375
0.89607 0.27203 -0.35079
0.89771 0.27353 -0.3454
0.88625 0.27344 -0.37388
0.89568 0.2744 -0.34995
0.8957 0.27359 -0.35053
0.89568 0.2744 -0.34995
0.88625 0.27344 -0.37388
0.88623 0.27371 -0.37375
0.88651 0.27563 -0.37166
0.91507 0.2918 -0.27837
0.7252 0.58918 -0.35631
0.89114 0.42486 -0.15924
0.88799 0.27061 -0.37181
0.88799 0.27061 -0.37181
0.87634 0.27826 -0.39319
0.87634 0.27826 -0.39319
0.9193 0.32387 -0.22359
0.91693 0.29538 -0.2683
0.91895 0.3085 -0.24569
0.91045 0.27883 -0.30551
0.90889 0.28334 -0.306
0.90889 0.28334 -0.306
0.90365 0.27596 -0.32751
0.91807 0.33285 -0.2153
0.91891 0.32359 -0.22561
0.91287 0.28581 -0.29151
0.91039 0.27893 -0.30558
0.91039 0.27893 -0.30558
0.91039 0.27893 -0.30558
0.91048 0.27929 -0.30498
0.9143 0.29121 -0.28152
0.91925 0.31571 -0.23518
0.90792 0.37817 -0.18075
0.91821 0.33036 -0.21854
0.84 0.51686 -0.16512
0.84383 0.51129 -0.16291
0.9193 0.32387 -0.22359
0.9143 0.29121 -0.28152
0.86724 0.473 -0.15549
0.86724 0.473 -0.15549
0.91454 0.2834 -0.28862
0.91454 0.2834 -0.28862
0.91015 0.27549 -0.30942
0.91015 0.27549 -0.30942
0.91562 0.28924 -0.27924
0.90997 0.28098 -0.30496
0.91821 0.33036 -0.21854
0.91925 0.31571 -0.23518
0.86724 0.473 -0.15549
0.9193 0.32387 -0.22359
0.91729 0.29547 -0.26697
0.86331 0.47991 -0.15616
0.87575 0.45705 -0.15547
0.90944 0.37336 -0.18307
0.912 0.36418 -0.18874
0.84486 0.30118 -0.44216
0.91668 0.34321 -0.2047
0.91926 0.30795 -0.24522
0.90963 0.27949 -0.30734
0.82954 0.31557 -0.46073
0.82776 0.31571 -0.46383
0.81602 0.33016 -0.47445
0.91714 0.33944 -0.2089
0.84305 0.29937 -0.44683
0.85509 0.29053 -0.42943
0.89003 0.42682 -0.16022
0.89924 0.40425 -0.16714
0.89924 0.40425 -0.16714
0.90683 0.38225 -0.17761
0.9041 0.3906 -0.17331
0.9041 0.3906 -0.17331
0.89769 0.27481 -0.34442
0.89769 0.27481 -0.34442
0.87583 0.45666 -0.15616
0.90648 0.2831 -0.31328
0.85391 0.49562 -0.15876
0.85795 0.48938 -0.15629
0.86802 0.47148 -0.15575
0.87961 0.44934 -0.15613
0.91814 0.30164 -0.25699
0.88262 0.44364 -0.15544
0.89014 0.42749 -0.15784
0.88262 0.44364 -0.15544
0.89014 0.42749 -0.15784
0.8829 0.44189 -0.1588
0.8829 0.44189 -0.1588
0.87361 0.46173 -0.1537
0.87361 0.46173 -0.1537
0.87361 0.46173 -0.1537
0.87112 0.46523 -0.15717
0.89822 0.40733 -0.1652
0.89822 0.40733 -0.1652
0.89822 0.40733 -0.1652
0.90563 0.3868 -0.17386
0.89935 0.40413 -0.16685
0.89935 0.40413 -0.16685
0.90479 0.38829 -0.17492
0.91025 0.37291 -0.17996
0.90479 0.38829 -0.17492
0.91025 0.37291 -0.17996
0.91188 0.36285 -0.1919
0.91398 0.35705 -0.19275
0.912 0.36555 -0.18609
0.91792 0.34342 -0.1987
0.91792 0.34342 -0.1987
0.91792 0.34342 -0.1987
0.91723 0.33821 -0.21046
0.99254 0.11862 0.028072
0.89229 0.42174 -0.16111
0.90563 0.3868 -0.17386
0.85198 0.49903 -0.15843
0.86399 0.28418 -0.41566
0.91823 0.33144 -0.21679
0.84425 0.30194 -0.44281
0.842 0.29968 -0.44859
0.87923 0.27361 -0.38999
0.88325 0.27607 -0.37902
0.85937 0.48663 -0.15709
0.85937 0.48663 -0.15709
0.89114 0.42486 -0.15924
0.91717 0.29587 -0.26695
0.91859 0.30281 -0.25397
0.87688 0.27735 -0.39263
0.83314 0.52638 -0.1697
0.85795 0.48938 -0.15629
0.85391 0.49562 -0.15876
0.85509 0.29053 -0.42943
0.8412 0.30236 -0.44828
0.8412 0.30236 -0.44828
0.87799 0.4524 -0.15639
0.84237 0.51318 -0.16449
0.8541 0.29059 -0.43135
0.8541 0.29059 -0.43135
0.82061 0.54296 -0.17833
0.83639 0.522 -0.16724
0.81812 0.54566 -0.18148
0.85168 0.29335 -0.43426
0.83833 0.30255 -0.45351
0.79633 0.35528 -0.48952
0.91855 0.29959 -0.25789
0.7337 0.5961 -0.32611
0.86453 0.28352 -0.41497
0.86453 0.28352 -0.41497
0.85595 0.28801 -0.42942
0.79162 0.36344 -0.49117
0.91714 0.33944 -0.2089
0.87593 0.27722 -0.39483
0.7687 0.39816 -0.50056
0.82314 0.32073 -0.46859
0.81935 0.3247 -0.47249
0.81935 0.3247 -0.47249
0.8961 0.41236 -0.16423
0.8961 0.41236 -0.16423
0.9041 0.3906 -0.17331
0.8872 0.43329 -0.15851
0.85556 0.49295 -0.15815
0.87634 0.27826 -0.39319
0.86843 0.28112 -0.40841
0.80554 0.34394 -0.48251
0.82932 0.5316 -0.17215
0.91773 0.30251 -0.25741
0.91483 0.35214 -0.19772
0.87602 0.27607 -0.39543
0.91897 0.30787 -0.24641
0.89066 0.42528 -0.1608
0.72107 0.52088 -0.45689
0.84633 0.50755 -0.16161
0.84633 0.50755 -0.16161
0.84633 0.50755 -0.16161
0.87799 0.4524 -0.15639
0.76736 0.5931 -0.2437
0.76736 0.5931 -0.2437
0.82954 0.31557 -0.46073
0.81602 0.33016 -0.47445
0.91714 0.2952 -0.2678
0.77848 0.58411 -0.22975
0.83833 0.30255 -0.45351
0.91822 0.30124 -0.25716
0.87961 0.44934 -0.15613
0.80357 0.56191 -0.19631
0.80739 0.34082 -0.48162
0.80739 0.34082 -0.48162
0.79269 0.36196 -0.49055
0.82572 0.31772 -0.46608
0.75341 0.59881 -0.27167
0.74279 0.60062 -0.29582
0.91814 0.30164 -0.25699
0.91897 0.30787 -0.24641
0.84192 0.5145 -0.16264
0.76736 0.5931 -0.2437
0.88635 0.4347 -0.15944
0.82932 0.5316 -0.17215
0.79633 0.35528 -0.48952
0.78269 0.37835 -0.49421
0.86638 0.28307 -0.41141
0.71961 0.57051 -0.39582
0.82792 0.53386 -0.17191
0.79214 0.57329 -0.20942
0.79214 0.57329 -0.20942
0.8038 0.56243 -0.19388
0.82272 0.53946 -0.17924
0.71622 0.56984 -0.40288
0.71622 0.56984 -0.40288
0.82272 0.53946 -0.17924
0.91925 0.31571 -0.23518
0.81207 0.55239 -0.18818
0.79854 0.56702 -0.20206
0.91668 0.34321 -0.2047
0.80069 0.56504 -0.19908
0.84633 0.50755 -0.16161
0.89114 0.42486 -0.15924
0.88635 0.4347 -0.15944
0.8961 0.41236 -0.16423
0.78702 0.5784 -0.2146
0.86121 0.48346 -0.15679
0.86121 0.48346 -0.15679
0.86121 0.48346 -0.15679
0.79045 0.57476 -0.21177
0.91897 0.30787 -0.24641
0.8412 0.30236 -0.44828
0.8412 0.30236 -0.44828
0.90856 0.3783 -0.1772
0.90543 0.38631 -0.17593
0.78702 0.5784 -0.2146
0.77623 0.58648 -0.23131
0.75232 0.60061 -0.2707
0.82954 0.31557 -0.46073
0.76469 0.59381 -0.25027
0.76469 0.59381 -0.25027
0.91823 0.33144 -0.21679
0.91895 0.32265 -0.22677
0.82776 0.31571 -0.46383
0.81373 0.33226 -0.47692
0.8872 0.43329 -0.15851
0.80214 0.34752 -0.4856
0.88262 0.44364 -0.15544
0.79936 0.35134 -0.48743
0.79936 0.35134 -0.48743
0.85937 0.48663 -0.15709
0.78788 0.36698 -0.49453
0.77368 0.38937 -0.49982
0.77368 0.38937 -0.49982
0.91895 0.32265 -0.22677
0.76246 0.41321 -0.4979
0.91907 0.31487 -0.23701
0.91723 0.33821 -0.21046
0.76246 0.41321 -0.4979
0.72042 0.5827 -0.37611
0.75003 0.43624 -0.49714
0.8541 0.29059 -0.43135
0.89992 0.40125 -0.17073
0.89726 0.40939 -0.16528
0.88325 0.27607 -0.37902
-0.99528 0.096256 0.012249
0.71901 0.55314 -0.42079
0.77895 0.5832 -0.23047
0.71956 0.53399 -0.44395
0.62182 0.055971 -0.78116
-0.86743 0.46034 0.18882
0.80554 0.34394 -0.48251
0.81935 0.3247 -0.47249
0.91907 0.31597 -0.23551
0.72785 0.49584 -0.47369
0.88325 0.27607 -0.37902
0.81555 0.54859 -0.18418
0.91048 0.27929 -0.30498
0.63077 0.10306 0.7691
0.86198 0.28535 -0.41901
0.71855 0.54234 -0.43538
0.82792 0.53386 -0.17191
0.87024 0.42273 -0.25294
0.85157 0.29203 -0.43537
0.83995 0.51767 -0.16279
0.7791 0.38343 -0.49597
0.8868 0.2731 -0.37283
0.8957 0.27359 -0.35053
-0.68708 0.2903 0.66607
0.91075 0.27724 -0.30605
0.75606 0.59711 -0.26802
0.86362 0.47942 -0.15598
-0.99517 -0.09779 -0.0081675
0.91282 0.28626 -0.29122
0.842 0.29968 -0.44859
0.89935 0.40413 -0.16685
0.90365 0.27596 -0.32751
0.89568 0.2744 -0.34995
0.91907 0.31597 -0.23551
0.71761 0.57586 -0.39169
0.91045 0.27883 -0.30551
0.73906 0.4607 -0.49147
0.75606 0.59711 -0.26802
0.8979 0.27404 -0.34448
0.8733 0.27899 -0.3994
0.89663 0.27488 -0.34711
0.90963 0.27949 -0.30734
0.85031 0.50078 -0.16184
0.8038 0.56243 -0.19388
0.91282 0.28626 -0.29122
0.77509 0.58741 -0.23279
-0.98178 -0.10564 -0.15797
0.73038 0.48559 -0.48037
0.7224 0.58459 -0.36932
0.88486 0.43801 -0.15867
0.73598 0.59953 -0.31447
-0.98928 -0.12535 -0.074868
0.87112 0.46523 -0.15717
0.71901 0.55314 -0.42079
-0.99844 0.055771 -0.0015317
0.76689 0.59193 -0.24801
0.90997 0.28098 -0.30496
0.8829 0.44189 -0.1588
0.8957 0.27359 -0.35053
0.74279 0.60062 -0.29582
-0.9527 0.28742 0.098755
0.91372 0.28725 -0.2874
0.79533 0.35782 -0.4893
0.87508 0.28088 -0.39413
0.7687 0.39816 -0.50056
0.71886 0.53165 -0.44787
0.73906 0.4607 -0.49147
0.91039 0.27893 -0.30558
0.74377 0.45219 -0.49228
0.89769 0.27481 -0.34442
0.75624 0.42364 -0.49863
0.7368 0.59892 -0.31372
0.73816 0.46185 -0.49175
-0.99974 0.019371 -0.012073
0.91859 0.30281 -0.25397
0.72442 0.59447 -0.34903
0.91835 0.33006 -0.21841
0.84486 0.30118 -0.44216
0.75499 0.42847 -0.49639
0.82913 0.31449 -0.46221
0.89607 0.27203 -0.35079
0.912 0.36555 -0.18609
0.90648 0.2831 -0.31328
0.82411 0.53866 -0.17516
0.79162 0.36344 -0.49117
0.79269 0.57208 -0.21063
0.90479 0.38829 -0.17492
0.90208 0.39774 -0.16749
0.8572 0.49019 -0.15787
0.90453 0.27256 -0.32792
-0.98836 -0.11784 -0.09627
0.79045 0.57476 -0.21177
0.7337 0.5961 -0.32611
0.91926 0.31679 -0.23367
0.83101 0.31245 -0.46022
0.90208 0.39774 -0.16749
0.56256 0.096929 -0.82106
0.89666 0.41099 -0.16458
0.89151 0.27308 -0.36145
0.90375 0.27546 -0.32765
0.76689 0.59193 -0.24801
0.89607 0.27203 -0.35079
0.77509 0.58741 -0.23279
0.84192 0.5145 -0.16264
0.91293 0.36006 -0.19215
0.90295 0.27816 -0.32758
0.91015 0.27549 -0.30942
0.82061 0.54296 -0.17833
0.91702 0.33776 -0.21209
0.79269 0.36196 -0.49055
0.88421 0.27603 -0.37679
0.83995 0.51767 -0.16279
0.91855 0.29959 -0.25789
0.85031 0.50078 -0.16184
0.83995 0.51767 -0.16279
0.73286 0.59955 -0.32164
0.91188 0.36285 -0.1919
-0.99975 -0.010854 -0.019343
-0.99738 -0.068392 -0.023413
0.91048 0.27929 -0.30498
0.89935 0.40413 -0.16685
0.75624 0.42364 -0.49863
-0.99524 -0.096203 -0.015755
0.82792 0.53386 -0.17191
0.75895 0.59731 -0.25926
0.89808 0.26974 -0.34742
0.87175 0.46442 -0.15611
0.79269 0.57208 -0.21063
-0.9309 0.34243 0.12717
0.90465 0.27331 -0.32697
0.89808 0.26974 -0.34742
0.82792 0.53386 -0.17191
0.79162 0.36344 -0.49117
0.73396 0.47587 -0.4846
0.99254 0.11862 0.028072
-0.97599 -0.10124 -0.19288
0.90465 0.27331 -0.32697
0.88486 0.43801 -0.15867
0.75606 0.59711 -0.26802
0.91048 0.27929 -0.30498
0.83589 0.48637 -0.25441
0.89229 0.42174 -0.16111
0.90985 0.37235 -0.18314
0.73286 0.59955 -0.32164
0.84486 0.30118 -0.44216
0.72965 0.59248 -0.34145
0.8572 0.49019 -0.15787
-0.99974 0.019371 -0.012073
0.91835 0.33006 -0.21841
0.89663 0.27488 -0.34711
0.90963 0.27949 -0.30734
0.82913 0.31449 -0.46221
0.73038 0.48559 -0.48037
0.79269 0.36196 -0.49055
0.76736 0.5931 -0.2437
0.89151 0.27308 -0.36145
0.75341 0.59881 -0.27167
0.86121 0.48346 -0.15679
0.81555 0.54859 -0.18418
0.90821 0.27965 -0.31138
0.76759 0.4032 -0.49823
0.87468 0.27599 -0.39845
0.90403 0.27428 -0.32786
0.72965 0.59248 -0.34145
0.91075 0.27724 -0.30605
0.81102 0.51457 -0.27833
0.91926 0.31679 -0.23367
0.90295 0.27816 -0.32758
0.90889 0.28334 -0.306
0.77895 0.5832 -0.23047
0.81935 0.3247 -0.47249
0.89769 0.27481 -0.34442
0.81555 0.54859 -0.18418
0.91045 0.27883 -0.30551
0.72222 0.50998 -0.46725
0.72807 0.59522 -0.34003
0.86121 0.48346 -0.15679
0.75358 0.59646 -0.27631
0.74441 0.448 -0.49512
0.91398 0.35705 -0.19275
0.78181 0.51898 -0.3456
0.80676 0.55909 -0.19119
0.91723 0.33821 -0.21046
0.7791 0.38343 -0.49597
0.89771 0.27353 -0.3454
0.74441 0.448 -0.49512
0.75499 0.42847 -0.49639
0.75499 0.42847 -0.49639
0.91536 0.28628 -0.28313
0.83368 0.44099 -0.33242
0.83381 0.44005 -0.33333
0.83201 0.44376 -0.33292
0.82972 0.38654 -0.40268
0.83217 0.44359 -0.33273
0.83205 0.44379 -0.33279
0.83237 0.44301 -0.33301
0.83211 0.44384 -0.33256
0.83249 0.44299 -0.33274
0.83197 0.44406 -0.33264
0.83203 0.44378 -0.33284
0.83207 0.44384 -0.33266
0.83252 0.44349 -0.33201
0.86498 0.43605 -0.24834
0.83217 0.44369 -0.33262
0.87715 0.39814 -0.26848
0.83169 0.44351 -0.33405
0.83182 0.44493 -0.33183
0.8323 0.44326 -0.33286
0.83133 0.43944 -0.34026
0.83178 0.44452 -0.33249
0.83222 0.44386 -0.33226
0.83206 0.44395 -0.33254
0.8324 0.44336 -0.33249
0.83204 0.44377 -0.33283
0.83364 0.44218 -0.33094
0.84615 0.36849 -0.38503
0.8304 0.44683 -0.33283
0.83545 0.43796 -0.33199
0.83113 0.44548 -0.33281
0.8304 0.44683 -0.33283
0.8322 0.44323 -0.33315
0.8287 0.44428 -0.34041
0.83158 0.44431 -0.33326
0.83118 0.44959 -0.32712
0.83178 0.44377 -0.33348
0.85183 0.46289 -0.24519
0.82898 0.44818 -0.33455
0.81102 0.51457 -0.27833
0.78181 0.51898 -0.3456
0.87522 0.40918 -0.25798
0.82807 0.44732 -0.33795
0.83403 0.44125 -0.33121
0.86064 0.36055 -0.3596
0.83001 0.44682 -0.33381
0.83253 0.44264 -0.33313
0.83137 0.44516 -0.33265
0.83386 0.44062 -0.33246
0.83386 0.44038 -0.33279
0.83386 0.44038 -0.33279
0.83634 0.43749 -0.33037
0.83329 0.44276 -0.33104
0.83207 0.44377 -0.33277
0.83212 0.43877 -0.33921
0.8214 0.39695 -0.40956
0.83799 0.37601 -0.39547
0.83287 0.4415 -0.33378
0.83214 0.44373 -0.33264
0.83204 0.44362 -0.33303
0.8307 0.44086 -0.33998
0.83199 0.44387 -0.33281
0.83132 0.444 -0.33433
0.83197 0.44348 -0.33339
0.83204 0.44378 -0.33281
0.83216 0.44367 -0.33266
0.83206 0.44375 -0.33281
0.83226 0.44369 -0.33238
0.86629 0.36065 -0.34566
0.82786 0.45085 -0.33373
0.82974 0.44766 -0.33337
0.83229 0.44326 -0.33288
0.83161 0.44468 -0.33271
0.83356 0.44143 -0.33213
0.83356 0.44143 -0.33213
0.83419 0.44085 -0.33133
0.83357 0.44152 -0.33199
0.83357 0.44152 -0.33199
0.83357 0.44152 -0.33199
0.83143 0.44458 -0.33327
0.83143 0.44458 -0.33327
0.83143 0.44458 -0.33327
0.83194 0.44391 -0.33289
0.83203 0.44379 -0.33284
0.83203 0.44379 -0.33284
0.83203 0.44379 -0.33284
0.83233 0.44339 -0.33262
0.83205 0.44376 -0.33282
0.83205 0.44376 -0.33282
0.83205 0.44376 -0.33282
0.83205 0.44376 -0.33282
0.83203 0.44378 -0.33285
0.83203 0.44378 -0.33285
0.83203 0.44378 -0.33285
0.83203 0.44378 -0.33285
0.83206 0.44375 -0.3328
0.83206 0.44375 -0.3328
0.83206 0.44375 -0.3328
0.83206 0.44375 -0.3328
0.83205 0.44376 -0.33282
0.83205 0.44376 -0.33282
0.83205 0.44376 -0.33282
0.83205 0.44376 -0.33282
0.83206 0.44376 -0.3328
0.83206 0.44376 -0.3328
0.83206 0.44376 -0.3328
0.83206 0.44376 -0.3328
0.83205 0.44376 -0.33282
0.83205 0.44376 -0.33282
0.83205 0.44376 -0.33282
0.83198 0.44374 -0.33302
0.83205 0.44376 -0.33282
0.83205 0.44376 -0.33282
0.83205 0.44376 -0.33282
0.83203 0.44374 -0.33292
0.83204 0.44375 -0.33285
0.83204 0.44375 -0.33285
0.83204 0.44375 -0.33285
0.83212 0.44392 -0.33244
0.83205 0.44378 -0.33279
0.83205 0.44378 -0.33279
0.83205 0.44378 -0.33279
0.83204 0.44365 -0.333
0.83205 0.44376 -0.33282
0.83205 0.44376 -0.33282
0.83205 0.44376 -0.33282
0.83205 0.4437 -0.3329
0.83205 0.44374 -0.33284
0.83205 0.44374 -0.33284
0.83205 0.44374 -0.33284
0.83201 0.44405 -0.33255
0.83205 0.44378 -0.3328
0.83205 0.44378 -0.3328
0.83205 0.44378 -0.3328
0.83209 0.4436 -0.33293
0.83205 0.44376 -0.33282
0.83205 0.44376 -0.33282
0.83205 0.44376 -0.33282
0.83208 0.44368 -0.33286
0.83205 0.44376 -0.33282
0.83205 0.44376 -0.33282
0.83205 0.44376 -0.33282
0.83194 0.44403 -0.33273
0.83205 0.44376 -0.33282
0.83205 0.44376 -0.33282
0.83205 0.44376 -0.33282
0.83199 0.44388 -0.3328
0.83205 0.44376 -0.33282
0.83205 0.44376 -0.33282
0.83205 0.44376 -0.33282
0.83203 0.4438 -0.33282
0.83205 0.44376 -0.33282
0.83205 0.44376 -0.33282
0.83205 0.44376 -0.33282
0.83214 0.44361 -0.33279
0.83205 0.44376 -0.33282
0.83205 0.44376 -0.33282
0.83205 0.44376 -0.33282
0.83209 0.4437 -0.33279
0.83205 0.44376 -0.33282
0.83205 0.44376 -0.33282
0.83205 0.44376 -0.33282
0.8319 0.44395 -0.33295
0.83205 0.44376 -0.33282
0.83205 0.44376 -0.33282
0.83205 0.44376 -0.33282
0.83198 0.44383 -0.33289
0.83205 0.44376 -0.33282
0.83205 0.44376 -0.33282
0.83205 0.44376 -0.33282
0.83202 0.44378 -0.33285
0.83205 0.44376 -0.33282
0.83205 0.44376 -0.33282
0.83205 0.44376 -0.33282
0.83204 0.44377 -0.33284
0.83205 0.44376 -0.33282
0.83205 0.44376 -0.33282
0.83205 0.44376 -0.33282
0.83204 0.44376 -0.33283
0.83205 0.44376 -0.33282
0.83205 0.44376 -0.33282
0.83205 0.44376 -0.33282
0.83204 0.44376 -0.33285
0.83205 0.44376 -0.33282
0.83205 0.44376 -0.33282
0.83205 0.44376 -0.33282
0.83204 0.44376 -0.33284
0.83205 0.44376 -0.33282
0.83205 0.44376 -0.33281
0.8321 0.44383 -0.33261
0.83205 0.44376 -0.33281
0.8321 0.44383 -0.33261
0.83214 0.44398 -0.33229
0.83204 0.44371 -0.33291
0.83214 0.44398 -0.33229
0.83204 0.44371 -0.33291
0.83204 0.44366 -0.333
0.83205 0.44369 -0.33292
0.83204 0.44366 -0.333
0.83205 0.44369 -0.33292
0.83205 0.44361 -0.333
0.83205 0.44372 -0.33287
0.83205 0.44361 -0.333
0.83205 0.44372 -0.33287
0.83219 0.4428 -0.33373
0.83206 0.44372 -0.33285
0.83219 0.4428 -0.33373
0.83206 0.44372 -0.33285
0.83201 0.44391 -0.33271
0.83207 0.44373 -0.33279
0.83201 0.4438 -0.33288
0.83208 0.44365 -0.33289
0.83207 0.44377 -0.33275
0.83204 0.44375 -0.33285
0.8321 0.44344 -0.33312
0.83205 0.44376 -0.33282
0.83202 0.44381 -0.33282
0.83205 0.44376 -0.33282
0.83204 0.44371 -0.33291
0.83204 0.44376 -0.33284
0.83205 0.44376 -0.33282
0.83208 0.44368 -0.33285
0.83205 0.44376 -0.33282
0.83205 0.44376 -0.33282
0.83205 0.44376 -0.33282
0.83206 0.44376 -0.3328
0.83206 0.44372 -0.33285
0.83205 0.44382 -0.33274
0.83208 0.44365 -0.33289
0.83201 0.44391 -0.33271
0.83206 0.44372 -0.33285
0.83205 0.44377 -0.33282
0.83201 0.44391 -0.33271
0.83223 0.44322 -0.3331
0.83214 0.44398 -0.33229
0.83204 0.44376 -0.33284
0.83219 0.4428 -0.33373
0.83204 0.44376 -0.33283
0.83204 0.44377 -0.33284
0.83198 0.44383 -0.33289
0.8319 0.44395 -0.33295
0.83214 0.44361 -0.33279
0.83209 0.4436 -0.33293
0.83205 0.4437 -0.3329
0.83203 0.4438 -0.33282
0.83212 0.44392 -0.33244
0.83194 0.44403 -0.33273
0.83198 0.44374 -0.33302
0.83204 0.44366 -0.333
0.83206 0.44376 -0.3328
0.83191 0.44389 -0.33301
0.83222 0.44365 -0.33255
0.83202 0.44388 -0.33275
0.83206 0.44372 -0.33285
0.83205 0.44377 -0.33282
0.83205 0.44377 -0.33282
0.83233 0.44339 -0.33262
0.83197 0.44404 -0.33265
0.83197 0.44404 -0.33265
0.83223 0.44322 -0.3331
0.83155 0.44513 -0.33223
0.83233 0.44298 -0.33316
0.83233 0.44298 -0.33316
0.83062 0.44541 -0.33419
0.83236 0.44297 -0.33309
0.83194 0.44391 -0.33289
0.83203 0.44376 -0.33286
0.83205 0.44376 -0.33281
0.83205 0.44376 -0.33282
0.83204 0.44365 -0.333
0.83199 0.44388 -0.3328
0.83208 0.44368 -0.33286
0.832 0.44382 -0.33286
0.83184 0.44405 -0.33295
0.832 0.44382 -0.33286
0.8321 0.44383 -0.33261
0.83202 0.44383 -0.33281
0.83205 0.44387 -0.33269
0.83205 0.44376 -0.33281
0.83202 0.44388 -0.33275
0.83199 0.44404 -0.33259
0.83233 0.44298 -0.33316
0.83164 0.44481 -0.33243
0.83184 0.44405 -0.33295
0.83108 0.44505 -0.33351
0.83108 0.44505 -0.33351
0.83108 0.44505 -0.33351
0.83135 0.44457 -0.33348
0.83108 0.44505 -0.33351
0.83191 0.44397 -0.3329
0.83155 0.44513 -0.33223
0.83155 0.44513 -0.33223
0.83233 0.44298 -0.33316
0.83183 0.44435 -0.3326
0.83201 0.44392 -0.33271
0.83199 0.44404 -0.33259
0.83199 0.44404 -0.33259
0.83203 0.44393 -0.33266
0.8315 0.44522 -0.33225
0.83202 0.44386 -0.33277
0.8315 0.44522 -0.33225
0.83191 0.44397 -0.3329
0.83184 0.44405 -0.33295
0.83205 0.44374 -0.33285
0.83205 0.44374 -0.33285
0.8323 0.44253 -0.33384
0.83205 0.44374 -0.33285
0.83205 0.44377 -0.33281
0.83205 0.44366 -0.33296
0.83205 0.44366 -0.33296
0.83205 0.44366 -0.33296
0.83205 0.44379 -0.33277
0.83185 0.44407 -0.3329
0.83205 0.44374 -0.33286
0.83205 0.44374 -0.33286
0.83205 0.44374 -0.33286
0.83204 0.44375 -0.33285
0.83201 0.44369 -0.33302
0.83201 0.44369 -0.33302
0.83201 0.44369 -0.33302
0.83205 0.44376 -0.33283
0.83204 0.44375 -0.33286
0.83204 0.44375 -0.33286
0.83204 0.44375 -0.33286
0.83207 0.44377 -0.33276
0.83208 0.44376 -0.33273
0.83204 0.44376 -0.33284
0.832 0.44378 -0.33293
0.83204 0.44376 -0.33284
0.832 0.44378 -0.33293
0.83199 0.44379 -0.33293
0.83203 0.44377 -0.33286
0.83199 0.44379 -0.33293
0.83203 0.44377 -0.33286
0.83199 0.4438 -0.33291
0.83207 0.44375 -0.3328
0.83199 0.4438 -0.33291
0.83207 0.44375 -0.3328
0.83212 0.4437 -0.33274
0.83214 0.44367 -0.33271
0.83212 0.4437 -0.33274
0.83214 0.44367 -0.33271
0.83178 0.44405 -0.3331
0.832 0.44382 -0.33287
0.83178 0.44405 -0.3331
0.832 0.44382 -0.33287
0.83213 0.44366 -0.33275
0.83202 0.4438 -0.33284
0.83213 0.44366 -0.33275
0.83202 0.4438 -0.33284
0.8321 0.44369 -0.33279
0.83202 0.4438 -0.33283
0.8321 0.44369 -0.33279
0.83202 0.4438 -0.33283
0.83187 0.44406 -0.33288
0.83215 0.44358 -0.3328
0.83187 0.44406 -0.33288
0.83215 0.44358 -0.3328
0.83225 0.44339 -0.33282
0.83176 0.44434 -0.33278
0.83225 0.44339 -0.33282
0.83176 0.44434 -0.33278
0.83203 0.44381 -0.33281
0.83203 0.44382 -0.33281
0.83203 0.44382 -0.33281
0.83203 0.44382 -0.33281
0.8318 0.44438 -0.33261
0.83224 0.44323 -0.33304
0.83224 0.44323 -0.33304
0.83224 0.44323 -0.33304
0.8322 0.4433 -0.33306
0.83194 0.44415 -0.33258
0.8322 0.4433 -0.33306
0.83194 0.44415 -0.33258
0.83196 0.44412 -0.33256
0.83214 0.44331 -0.3332
0.83196 0.44412 -0.33256
0.83214 0.44331 -0.3332
0.83196 0.44435 -0.33225
0.83205 0.44375 -0.33283
0.83196 0.44435 -0.33225
0.83205 0.44375 -0.33283
0.83207 0.44295 -0.33386
0.83207 0.44404 -0.33241
0.83207 0.44404 -0.33241
0.83207 0.44404 -0.33241
0.83209 0.44403 -0.33235
0.83204 0.44373 -0.33289
0.83204 0.44373 -0.33289
0.83204 0.44373 -0.33289
0.8319 0.44343 -0.33363
0.83223 0.44403 -0.33201
0.8319 0.44343 -0.33363
0.83223 0.44403 -0.33201
0.83218 0.44388 -0.33233
0.83183 0.44363 -0.33355
0.83183 0.44363 -0.33355
0.83183 0.44363 -0.33355
0.83189 0.44372 -0.33328
0.83226 0.44377 -0.33227
0.83189 0.44372 -0.33328
0.83226 0.44377 -0.33227
0.83231 0.44372 -0.33222
0.83197 0.44378 -0.33299
0.83232 0.44364 -0.33232
0.83197 0.44378 -0.33299
0.83232 0.44364 -0.33232
0.83206 0.44376 -0.33281
0.83122 0.44433 -0.33414
0.83206 0.44376 -0.33281
0.83122 0.44433 -0.33414
0.83236 0.44351 -0.33237
0.83122 0.44433 -0.33414
0.83236 0.44351 -0.33237
0.83296 0.44295 -0.33163
0.83198 0.44383 -0.3329
0.83191 0.44391 -0.33297
0.83191 0.44397 -0.3329
0.83226 0.4435 -0.33265
0.83122 0.44433 -0.33414
0.83189 0.44372 -0.33328
0.8319 0.44343 -0.33363
0.83222 0.44337 -0.33293
0.83196 0.44435 -0.33225
0.8322 0.4433 -0.33306
0.83179 0.44437 -0.33266
0.83225 0.44339 -0.33282
0.8321 0.44369 -0.33279
0.83232 0.44364 -0.33232
0.83231 0.44372 -0.33222
0.83205 0.44379 -0.33277
0.83176 0.44419 -0.33296
0.83209 0.44403 -0.33235
0.83207 0.44295 -0.33386
0.8318 0.44438 -0.33261
0.83203 0.44381 -0.33281
0.83213 0.44366 -0.33275
0.83178 0.44405 -0.3331
0.83212 0.4437 -0.33274
0.83199 0.4438 -0.33291
0.83199 0.44379 -0.33293
0.83204 0.44376 -0.33284
0.83207 0.44377 -0.33276
0.83205 0.44376 -0.33283
0.83205 0.44377 -0.33281
0.83203 0.44393 -0.33266
0.83201 0.44392 -0.33271
0.83201 0.44392 -0.33271
0.83191 0.44397 -0.3329
0.83296 0.44295 -0.33163
0.83191 0.44391 -0.33297
0.83253 0.4424 -0.33342
0.83236 0.44297 -0.33309
0.83205 0.44376 -0.33282
0.83265 0.4429 -0.33247
0.83183 0.44435 -0.3326
0.83183 0.44435 -0.3326
0.8315 0.44522 -0.33225
0.8315 0.44522 -0.33225
0.83294 0.44228 -0.33256
0.83226 0.4435 -0.33265
0.83185 0.44407 -0.3329
0.83185 0.44407 -0.3329
0.83198 0.44383 -0.3329
0.83198 0.44383 -0.3329
0.83236 0.44351 -0.33237
0.83183 0.44363 -0.33355
0.83184 0.44407 -0.33292
0.83204 0.44373 -0.33289
0.83197 0.44378 -0.33299
0.83214 0.44331 -0.3332
0.83236 0.44297 -0.33309
0.83342 0.44045 -0.33379
0.83342 0.44045 -0.33379
0.83224 0.44323 -0.33304
0.83226 0.44377 -0.33227
0.83448 0.44077 -0.33071
0.83215 0.44358 -0.3328
0.83202 0.4438 -0.33284
0.83207 0.44404 -0.33241
0.83205 0.44375 -0.33283
0.83226 0.4435 -0.33265
0.83203 0.44382 -0.33281
0.83176 0.44434 -0.33278
0.83197 0.44404 -0.33265
0.8323 0.44253 -0.33384
0.83249 0.44196 -0.33412
0.8319 0.44477 -0.33184
0.83249 0.44196 -0.33412
0.8319 0.44477 -0.33184
0.8319 0.44477 -0.33184
0.8319 0.44477 -0.33184
0.83205 0.44381 -0.33276
0.83205 0.44381 -0.33276
0.83205 0.44381 -0.33276
0.83205 0.44381 -0.33276
0.8321 0.44409 -0.33225
0.8321 0.44409 -0.33225
0.8321 0.44409 -0.33225
0.8321 0.44409 -0.33225
0.83197 0.44358 -0.33326
0.83197 0.44358 -0.33326
0.83197 0.44358 -0.33326
0.83197 0.44358 -0.33326
0.83223 0.44394 -0.33212
0.83223 0.44394 -0.33212
0.83223 0.44394 -0.33212
0.8321 0.44378 -0.33267
0.8321 0.44378 -0.33267
0.8321 0.44378 -0.33267
0.8321 0.44378 -0.33267
0.83234 0.44372 -0.33216
0.83234 0.44372 -0.33216
0.83234 0.44372 -0.33216
0.83234 0.44372 -0.33216
0.83212 0.44373 -0.33269
0.83212 0.44373 -0.33269
0.83212 0.44373 -0.33269
0.83212 0.44373 -0.33269
0.83244 0.44349 -0.33219
0.83244 0.44349 -0.33219
0.83244 0.44349 -0.33219
0.83244 0.44349 -0.33219
0.83216 0.44366 -0.33267
0.83216 0.44366 -0.33267
0.83216 0.44366 -0.33267
0.83216 0.44366 -0.33267
0.83281 0.44295 -0.33201
0.83281 0.44295 -0.33201
0.83281 0.44295 -0.33201
0.83281 0.44295 -0.33201
0.83253 0.44316 -0.33242
0.83253 0.44316 -0.33242
0.83253 0.44316 -0.33242
0.83253 0.44316 -0.33242
0.83133 0.44479 -0.33324
0.83133 0.44479 -0.33324
0.83133 0.44479 -0.33324
0.83133 0.44479 -0.33324
0.83224 0.44346 -0.33276
0.83224 0.44346 -0.33276
0.83224 0.44346 -0.33276
0.83152 0.44468 -0.33292
0.83156 0.44467 -0.33283
0.83156 0.44467 -0.33283
0.83156 0.44467 -0.33283
0.83184 0.44418 -0.33279
0.83269 0.4424 -0.33303
0.83269 0.4424 -0.33303
0.83269 0.4424 -0.33303
0.83161 0.44476 -0.33258
0.83235 0.44302 -0.33306
0.83235 0.44302 -0.33306
0.83235 0.44302 -0.33306
0.83122 0.44603 -0.33187
0.83173 0.44475 -0.33231
0.83173 0.44475 -0.33231
0.83173 0.44475 -0.33231
0.83207 0.44368 -0.33287
0.83209 0.4436 -0.33293
0.83209 0.4436 -0.33293
0.83209 0.4436 -0.33293
0.83185 0.44473 -0.33202
0.83217 0.44293 -0.33361
0.83217 0.44293 -0.33361
0.83217 0.44293 -0.33361
0.83196 0.44469 -0.3318
0.83202 0.44485 -0.33144
0.83202 0.44485 -0.33144
0.83202 0.44485 -0.33144
0.83205 0.44375 -0.33283
0.83205 0.44379 -0.33277
0.83205 0.44379 -0.33277
0.83205 0.44375 -0.33283
0.83213 0.44405 -0.33225
0.83213 0.44405 -0.33225
0.83213 0.44405 -0.33225
0.83191 0.44343 -0.3336
0.83214 0.44389 -0.33243
0.83214 0.44389 -0.33243
0.83214 0.44389 -0.33243
0.83166 0.44338 -0.33429
0.83191 0.44343 -0.3336
0.83231 0.44392 -0.33195
0.83231 0.44392 -0.33195
0.83231 0.44392 -0.33195
0.83115 0.4435 -0.33541
0.83197 0.44375 -0.33303
0.83197 0.44375 -0.33303
0.83115 0.4435 -0.33541
0.83197 0.44375 -0.33303
0.83069 0.44393 -0.33597
0.83306 0.44347 -0.33068
0.83306 0.44347 -0.33068
0.83306 0.44347 -0.33068
0.8313 0.44408 -0.33426
0.83173 0.44394 -0.33338
0.83173 0.44394 -0.33338
0.83173 0.44394 -0.33338
0.83114 0.44435 -0.33431
0.83095 0.44463 -0.33442
0.83095 0.44463 -0.33442
0.83095 0.44463 -0.33442
0.83246 0.44337 -0.3323
0.83137 0.44442 -0.33363
0.83137 0.44442 -0.33363
0.83196 0.44469 -0.3318
0.83207 0.44368 -0.33287
0.83152 0.44468 -0.33292
0.83122 0.44603 -0.33187
0.83208 0.44371 -0.33281
0.83249 0.44196 -0.33412
0.83161 0.44476 -0.33258
0.83184 0.44418 -0.33279
0.83148 0.44442 -0.33336
0.83171 0.44409 -0.33322
0.83169 0.44396 -0.33344
0.83155 0.4439 -0.33387
0.83135 0.44457 -0.33348
0.83173 0.44357 -0.33387
0.83204 0.4437 -0.33292
0.83203 0.44367 -0.333
0.83209 0.4445 -0.33173
0.832 0.44382 -0.33287
0.83214 0.44367 -0.33271
0.83207 0.44375 -0.3328
0.83194 0.44409 -0.33265
0.83203 0.44377 -0.33286
0.832 0.44378 -0.33293
0.83208 0.44376 -0.33273
0.83111 0.44577 -0.33249
0.83205 0.44376 -0.33283
0.83205 0.44376 -0.33282
0.83137 0.44442 -0.33363
0.83245 0.44333 -0.3324
0.83069 0.44393 -0.33597
0.8313 0.44408 -0.33426
0.83114 0.44435 -0.33431
0.83246 0.44337 -0.3323
0.83087 0.44513 -0.33393
0.83184 0.44407 -0.33292
0.83184 0.44407 -0.33292
0.83053 0.44633 -0.33319
0.83251 0.44304 -0.33263
0.83187 0.44395 -0.33304
0.83296 0.44295 -0.33163
0.83182 0.44493 -0.33183
0.83206 0.44378 -0.33276
0.83342 0.44045 -0.33379
0.83219 0.44345 -0.33289
0.83212 0.44376 -0.33265
0.83234 0.44367 -0.33222
0.83243 0.44346 -0.33227
0.83064 0.44606 -0.33326
0.8321 0.44371 -0.33276
0.83309 0.44235 -0.33208
0.83138 0.44563 -0.332
0.83194 0.44409 -0.33265
0.83196 0.4439 -0.33286
0.83201 0.44392 -0.33271
0.83208 0.4436 -0.33295
0.83219 0.44305 -0.33341
0.83201 0.4438 -0.33288
0.83211 0.44314 -0.3335
0.83135 0.44457 -0.33348
0.83191 0.44389 -0.33301
0.83253 0.4424 -0.33342
0.83207 0.44375 -0.33278
0.83079 0.44567 -0.33342
0.83197 0.44375 -0.33303
0.83203 0.44374 -0.33292
0.8323 0.44253 -0.33384
0.83205 0.44376 -0.33282
0.83207 0.44356 -0.33304
0.83205 0.44382 -0.33274
0.83249 0.44306 -0.33265
0.83249 0.44306 -0.33265
0.83195 0.4439 -0.33289
0.83219 0.44345 -0.33289
0.83219 0.44345 -0.33289
0.83093 0.44608 -0.33253
0.83093 0.44608 -0.33253
0.83138 0.44563 -0.332
0.83019 0.44692 -0.33326
0.83195 0.4439 -0.33289
0.83294 0.44228 -0.33256
0.83019 0.44692 -0.33326
0.83249 0.44306 -0.33265
0.83249 0.44306 -0.33265
0.8329 0.44141 -0.33383
0.8329 0.44141 -0.33383
0.83253 0.44264 -0.33313
0.8313 0.44552 -0.33234
0.83232 0.44319 -0.3329
0.8322 0.44323 -0.33315
0.83205 0.44376 -0.33282
0.83201 0.4431 -0.3338
0.83208 0.4436 -0.33295
0.83205 0.44377 -0.33279
0.8329 0.44141 -0.33383
0.83201 0.44389 -0.33274
0.82974 0.44766 -0.33337
0.8322 0.44323 -0.33315
0.83249 0.44299 -0.33274
0.83199 0.44387 -0.33281
0.83237 0.44301 -0.33301
0.83287 0.4415 -0.33378
0.83195 0.4439 -0.33289
0.83191 0.44391 -0.33297
0.83222 0.44337 -0.33293
0.83207 0.44373 -0.33279
0.83191 0.44391 -0.33297
0.83191 0.44391 -0.33297
0.83201 0.4438 -0.33288
0.8322 0.44323 -0.33315
0.83202 0.44386 -0.33277
0.83184 0.44407 -0.33292
0.83191 0.44391 -0.33297
0.83079 0.44567 -0.33342
0.83212 0.44392 -0.33244
0.83419 0.44085 -0.33133
0.83179 0.44437 -0.33266
0.83179 0.44437 -0.33266
0.83111 0.44577 -0.33249
0.83204 0.44365 -0.333
0.83205 0.44375 -0.33283
0.83079 0.44567 -0.33342
0.83253 0.44264 -0.33313
0.83229 0.44326 -0.33288
0.87626 0.36303 -0.31683
0.83176 0.44419 -0.33296
0.83176 0.44419 -0.33296
0.83251 0.44304 -0.33263
0.83545 0.43796 -0.33199
0.83545 0.43796 -0.33199
0.82786 0.45085 -0.33373
0.83064 0.44606 -0.33326
0.82786 0.45085 -0.33373
0.83064 0.44606 -0.33326
0.8313 0.44552 -0.33234
0.8313 0.44552 -0.33234
0.83179 0.44437 -0.33266
0.83172 0.44446 -0.33273
0.83141 0.44522 -0.33247
0.83141 0.44522 -0.33247
0.83162 0.44476 -0.33255
0.8335 0.44071 -0.33324
0.83137 0.44516 -0.33265
0.83222 0.44337 -0.33293
0.83111 0.44577 -0.33249
0.83111 0.44577 -0.33249
0.83368 0.44099 -0.33242
0.83162 0.44476 -0.33255
0.83162 0.44476 -0.33255
0.83194 0.44391 -0.33289
0.83208 0.44365 -0.33289
0.83233 0.44339 -0.33262
0.83164 0.44481 -0.33243
0.83204 0.44365 -0.333
0.83201 0.4438 -0.33288
0.83211 0.44372 -0.33273
0.83164 0.44481 -0.33243
0.83191 0.44389 -0.33301
0.83191 0.44389 -0.33301
0.83251 0.44304 -0.33263
0.83223 0.44322 -0.3331
0.83253 0.4424 -0.33342
0.83205 0.44377 -0.33282
0.8341 0.44135 -0.33088
0.83448 0.44077 -0.33071
0.8341 0.44135 -0.33088
0.83448 0.44077 -0.33071
0.8341 0.44135 -0.33088
0.83245 0.44333 -0.3324
0.83206 0.44372 -0.33285
0.83205 0.44375 -0.33283
0.83205 0.4437 -0.3329
0.83158 0.44431 -0.33326
0.83087 0.44513 -0.33393
0.83187 0.44395 -0.33304
0.83187 0.44395 -0.33304
0.83196 0.44469 -0.3318
0.83202 0.44388 -0.33275
0.83364 0.44218 -0.33094
0.83236 0.44351 -0.33237
0.83211 0.44372 -0.33273
0.83211 0.44372 -0.33273
0.83205 0.44372 -0.33287
0.83079 0.44567 -0.33342
0.83222 0.44365 -0.33255
0.83173 0.44394 -0.33338
0.83155 0.44513 -0.33223
0.83202 0.44388 -0.33275
0.83204 0.44388 -0.33269
0.83204 0.44388 -0.33269
0.83206 0.44388 -0.33264
0.83205 0.44377 -0.33281
0.83206 0.44388 -0.33264
0.83206 0.44388 -0.33264
0.83206 0.4438 -0.33273
0.83205 0.44379 -0.33277
0.83206 0.4438 -0.33273
0.83206 0.4438 -0.33273
0.81284 0.40781 -0.41592
0.83204 0.44388 -0.33269
0.83198 0.44383 -0.3329
0.83206 0.44376 -0.33281
0.83204 0.44376 -0.33284
0.83205 0.44376 -0.33281
0.83197 0.44378 -0.33299
0.83205 0.44376 -0.33281
0.83207 0.44377 -0.33275
0.83226 0.44377 -0.33227
0.83207 0.44377 -0.33275
0.83202 0.44373 -0.33295
0.83205 0.44376 -0.33282
0.83202 0.44373 -0.33295
0.83202 0.44373 -0.33295
0.83306 0.44347 -0.33068
0.83207 0.44375 -0.33278
0.83206 0.44376 -0.3328
0.83206 0.44376 -0.3328
0.83569 0.44119 -0.32707
0.83252 0.44349 -0.33201
0.83223 0.44403 -0.33201
0.83213 0.44395 -0.33235
0.83213 0.44395 -0.33235
0.83213 0.44395 -0.33235
0.83204 0.44373 -0.33289
0.83205 0.44376 -0.33282
0.83203 0.44393 -0.33266
0.83205 0.44361 -0.333
0.83205 0.44361 -0.333
0.83205 0.44369 -0.33292
0.83204 0.4437 -0.33292
0.83198 0.44374 -0.33302
0.83231 0.44392 -0.33195
0.83203 0.44374 -0.33292
0.83213 0.44405 -0.33225
0.83214 0.44389 -0.33243
0.83205 0.44376 -0.33281
0.83205 0.44376 -0.33282
0.83296 0.44295 -0.33163
0.83205 0.44375 -0.33283
0.83205 0.44387 -0.33269
0.8321 0.44344 -0.33312
0.83214 0.44331 -0.3332
0.83185 0.44473 -0.33202
0.83209 0.4436 -0.33293
0.83185 0.44473 -0.33202
0.83201 0.44405 -0.33255
0.83207 0.44368 -0.33287
0.83185 0.44473 -0.33202
0.83207 0.44368 -0.33287
0.83205 0.44387 -0.33269
0.83205 0.44376 -0.33282
0.83207 0.44404 -0.33241
0.83205 0.44376 -0.33282
0.83122 0.44603 -0.33187
0.83194 0.44403 -0.33273
0.83122 0.44603 -0.33187
0.83194 0.44403 -0.33273
0.83214 0.44398 -0.33229
0.83206 0.44378 -0.33276
0.83206 0.44378 -0.33276
0.83205 0.44377 -0.33279
0.83205 0.44377 -0.33279
0.83201 0.4431 -0.3338
0.83201 0.4431 -0.3338
0.83205 0.44376 -0.33282
0.83205 0.44376 -0.33282
0.83182 0.44493 -0.33183
0.83194 0.44415 -0.33258
0.83205 0.44376 -0.33282
0.83205 0.44376 -0.33282
0.83205 0.44376 -0.33282
0.83204 0.44379 -0.3328
0.83194 0.44415 -0.33258
0.83204 0.44379 -0.3328
0.83224 0.44323 -0.33304
0.83205 0.44378 -0.3328
0.83161 0.44476 -0.33258
0.83199 0.44388 -0.3328
0.83184 0.44418 -0.33279
0.83203 0.4438 -0.33282
0.83152 0.44468 -0.33292
0.83152 0.44468 -0.33292
0.83208 0.44368 -0.33286
0.83208 0.44368 -0.33286
0.83208 0.44371 -0.33281
0.83222 0.44386 -0.33226
0.82956 0.44313 -0.33981
0.83222 0.44386 -0.33226
0.83089 0.44531 -0.33364
0.83089 0.44531 -0.33364
0.83209 0.4437 -0.33279
0.83171 0.44409 -0.33322
0.83148 0.44442 -0.33336
0.83148 0.44442 -0.33336
0.83139 0.44427 -0.33378
0.83139 0.44427 -0.33378
0.83202 0.44378 -0.33285
0.83234 0.44367 -0.33222
0.83234 0.44367 -0.33222
0.83212 0.44376 -0.33265
0.83217 0.44369 -0.33262
0.82784 0.44666 -0.33937
0.83217 0.44369 -0.33262
0.8321 0.44371 -0.33276
0.8321 0.44371 -0.33276
0.83243 0.44346 -0.33227
0.83155 0.4439 -0.33387
0.83169 0.44396 -0.33344
0.83169 0.44396 -0.33344
0.8324 0.44336 -0.33249
0.82744 0.44955 -0.33653
0.8324 0.44336 -0.33249
0.83196 0.4439 -0.33286
0.83196 0.4439 -0.33286
0.83309 0.44235 -0.33208
0.83249 0.44299 -0.33274
0.82941 0.44869 -0.33282
0.83199 0.44387 -0.33281
0.82815 0.45207 -0.33137
0.83181 0.44374 -0.33344
0.83181 0.44374 -0.33344
0.83204 0.44376 -0.33285
0.83237 0.44301 -0.33301
0.82912 0.45109 -0.33027
0.83205 0.44376 -0.33282
0.83205 0.44376 -0.33282
0.83205 0.44376 -0.33282
0.83205 0.44376 -0.33282
0.83204 0.44376 -0.33284
0.83205 0.44376 -0.33281
0.8319 0.44354 -0.33348
0.83205 0.44376 -0.33282
0.83205 0.44376 -0.33282
0.83205 0.44376 -0.33282
0.83205 0.44376 -0.33282
0.832 0.44382 -0.33287
0.83205 0.44376 -0.33282
0.83205 0.44376 -0.33282
0.83206 0.44374 -0.33282
0.83206 0.44374 -0.33282
0.83205 0.44376 -0.33282
0.83202 0.44381 -0.33282
0.83205 0.44376 -0.33282
0.83202 0.44383 -0.33281
0.83287 0.4415 -0.33378
0.83042 0.44877 -0.33018
0.83214 0.44367 -0.33271
0.83207 0.44375 -0.3328
0.83187 0.44406 -0.33288
0.832 0.44383 -0.33284
0.832 0.44383 -0.33284
0.83217 0.44359 -0.33273
0.832 0.44383 -0.33284
0.83187 0.44406 -0.33288
0.8321 0.44369 -0.33279
0.83213 0.44366 -0.33275
0.83206 0.44375 -0.33281
0.83178 0.44405 -0.3331
0.83203 0.44378 -0.33284
0.83203 0.44377 -0.33286
0.83206 0.44375 -0.33281
0.83203 0.44378 -0.33284
0.83225 0.44339 -0.33282
0.8319 0.44403 -0.33284
0.8323 0.44326 -0.33286
0.8323 0.44326 -0.33286
0.8319 0.44403 -0.33284
0.83203 0.44381 -0.33281
0.8319 0.44403 -0.33284
0.83212 0.4437 -0.33274
0.83216 0.44367 -0.33266
0.83203 0.44378 -0.33284
0.83203 0.44378 -0.33284
0.832 0.44383 -0.33284
0.8318 0.44438 -0.33261
0.8318 0.44438 -0.33261
0.83178 0.44452 -0.33249
0.83178 0.44452 -0.33249
0.8322 0.4433 -0.33306
0.83199 0.4438 -0.33291
0.83204 0.44377 -0.33283
0.83216 0.44367 -0.33266
0.83216 0.44367 -0.33266
0.83196 0.44412 -0.33256
0.83223 0.44311 -0.33322
0.83223 0.44311 -0.33322
0.83223 0.44311 -0.33322
0.83223 0.44311 -0.33322
0.83196 0.44412 -0.33256
0.8322 0.4433 -0.33306
0.83197 0.44406 -0.33264
0.83055 0.44985 -0.32835
0.83197 0.44406 -0.33264
0.83196 0.44469 -0.3318
0.83199 0.44379 -0.33293
0.83214 0.44373 -0.33264
0.83204 0.44377 -0.33283
0.83204 0.44377 -0.33283
0.83204 0.44366 -0.333
0.83203 0.44367 -0.333
0.83196 0.44435 -0.33225
0.83196 0.44435 -0.33225
0.83205 0.44379 -0.33279
0.83205 0.44379 -0.33279
0.83196 0.44422 -0.33243
0.83207 0.44295 -0.33386
0.83196 0.44422 -0.33243
0.83203 0.44381 -0.33281
0.83209 0.4436 -0.33293
0.83204 0.44378 -0.33281
0.83204 0.44378 -0.33281
0.83207 0.44377 -0.33276
0.83201 0.44376 -0.33292
0.83214 0.44373 -0.33264
0.83201 0.44376 -0.33292
0.83205 0.44376 -0.33282
0.83211 0.44314 -0.3335
0.83211 0.44314 -0.3335
0.83219 0.44305 -0.33341
0.83218 0.44388 -0.33233
0.83184 0.44347 -0.33373
0.83218 0.44388 -0.33233
0.8319 0.44343 -0.33363
0.83184 0.44347 -0.33373
0.83218 0.44388 -0.33233
0.8319 0.44343 -0.33363
0.79799 0.4342 -0.41795
0.83207 0.44377 -0.33277
0.83207 0.44377 -0.33277
0.83207 0.44377 -0.33277
0.80553 0.42109 -0.41689
0.83211 0.44384 -0.33256
0.83201 0.44376 -0.33292
0.77803 0.50595 -0.3724
0.83217 0.44359 -0.33273
0.87024 0.42273 -0.25294
0.83226 0.44369 -0.33238
0.83226 0.44369 -0.33238
0.83226 0.44369 -0.33238
0.86498 0.43605 -0.24834
0.83164 0.44375 -0.33385
0.83164 0.44375 -0.33385
0.83164 0.44375 -0.33385
0.83164 0.44375 -0.33385
0.83237 0.44393 -0.3318
0.83237 0.44393 -0.3318
0.85904 0.44949 -0.24498
0.83237 0.44393 -0.3318
0.83175 0.44393 -0.33333
0.83175 0.44393 -0.33333
0.83175 0.44393 -0.33333
0.87522 0.40918 -0.25798
0.83196 0.44383 -0.33294
0.83196 0.44383 -0.33294
0.8275 0.49779 -0.25972
0.83204 0.44362 -0.33303
0.83204 0.44362 -0.33303
0.83204 0.44362 -0.33303
0.83589 0.48637 -0.25441
0.83207 0.44384 -0.33266
0.83205 0.44379 -0.33279
0.83344 0.44685 -0.32512
0.83197 0.44348 -0.33339
0.83197 0.44348 -0.33339
0.83264 0.44756 -0.32621
0.83192 0.44356 -0.33343
0.83169 0.44351 -0.33405
0.83169 0.44351 -0.33405
0.83169 0.44351 -0.33405
0.83578 0.44467 -0.3221
0.83178 0.44377 -0.33348
0.83178 0.44377 -0.33348
0.83693 0.44293 -0.32151
0.83593 0.44195 -0.32544
0.83132 0.444 -0.33433
0.83184 0.44347 -0.33373
0.83205 0.44374 -0.33284
0.83205 0.44376 -0.33282
0.83208 0.44368 -0.33285
0.832 0.44378 -0.33293
0.83208 0.44376 -0.33273
0.83205 0.44376 -0.33283
0.83204 0.44375 -0.33286
0.83212 0.44392 -0.33244
0.832 0.44382 -0.33286
0.83093 0.44608 -0.33253
0.83201 0.44369 -0.33302
0.83296 0.44204 -0.33283
0.83161 0.44476 -0.33258
0.83198 0.44374 -0.33302
0.83211 0.44384 -0.33256
0.83204 0.44375 -0.33285
0.83205 0.44374 -0.33286
0.83207 0.44356 -0.33304
0.83265 0.4429 -0.33247
0.83329 0.44276 -0.33104
0.83204 0.44376 -0.33284
0.83205 0.44366 -0.33296
0.83201 0.44405 -0.33255
0.83201 0.44405 -0.33255
0.83208 0.44371 -0.33281
0.83199 0.44388 -0.3328
0.8335 0.44071 -0.33324
0.83205 0.44374 -0.33285
0.83053 0.44633 -0.33319
0.83019 0.44692 -0.33326
0.83233 0.44339 -0.33262
0.8323 0.44253 -0.33384
0.83203 0.44374 -0.33292
0.83199 0.44404 -0.33259
0.83253 0.4424 -0.33342
0.83184 0.44418 -0.33279
0.83294 0.44228 -0.33256
0.83203 0.4438 -0.33282
0.83207 0.44375 -0.33278
0.83207 0.44373 -0.33279
0.83164 0.44481 -0.33243
0.83197 0.44404 -0.33265
0.83222 0.44365 -0.33255
0.83205 0.4437 -0.3329
0.83203 0.44382 -0.33281
0.83249 0.44196 -0.33412
0.83226 0.4435 -0.33265
0.83201 0.44391 -0.33271
0.832 0.44382 -0.33286
0.83206 0.44376 -0.33281
0.83214 0.44361 -0.33279
0.8319 0.44395 -0.33295
0.83143 0.44458 -0.33327
0.83205 0.44376 -0.33282
0.83205 0.44378 -0.33279
0.83137 0.44516 -0.33265
0.83202 0.44383 -0.33281
0.83214 0.44361 -0.33279
0.83206 0.44372 -0.33285
0.83194 0.44409 -0.33265
0.83419 0.44085 -0.33133
0.83176 0.44434 -0.33278
0.83209 0.4437 -0.33279
0.83087 0.44513 -0.33393
0.83171 0.44409 -0.33322
0.83209 0.4437 -0.33279
0.83202 0.44381 -0.33282
0.83206 0.44395 -0.33254
0.83202 0.44373 -0.33295
0.83219 0.4428 -0.33373
0.83089 0.44531 -0.33364
0.83215 0.44358 -0.3328
0.83226 0.4435 -0.33265
0.8319 0.44395 -0.33295
0.83187 0.44395 -0.33304
0.83206 0.44374 -0.33282
0.83204 0.44377 -0.33284
0.83198 0.44383 -0.33289
0.83202 0.4438 -0.33283
0.83204 0.44376 -0.33284
0.83198 0.44383 -0.33289
0.8321 0.44344 -0.33312
0.83207 0.44373 -0.33279
0.83202 0.44378 -0.33285
0.83204 0.44379 -0.3328
0.83202 0.4438 -0.33283
0.83207 0.44356 -0.33304
0.83155 0.4439 -0.33387
0.83202 0.44378 -0.33285
0.83205 0.44376 -0.33282
0.83001 0.44682 -0.33381
0.83139 0.44427 -0.33378
0.83202 0.4438 -0.33284
0.83204 0.44377 -0.33284
0.83205 0.44376 -0.33282
0.83204 0.44376 -0.33283
0.83196 0.44383 -0.33294
0.83191 0.44391 -0.33297
0.83203 0.44379 -0.33284
0.83204 0.44376 -0.33283
0.83205 0.44376 -0.33282
0.8319 0.44354 -0.33348
0.83208 0.44368 -0.33285
0.83204 0.44376 -0.33285
0.83205 0.44376 -0.33282
0.83205 0.44376 -0.33282
0.83062 0.44541 -0.33419
0.83204 0.44376 -0.33285
0.83205 0.44376 -0.33282
0.83209 0.4445 -0.33173
0.83181 0.44374 -0.33344
0.83276 0.44242 -0.33282
0.83205 0.44379 -0.33277
0.83205 0.44376 -0.33282
0.83173 0.44357 -0.33387
0.83194 0.44409 -0.33265
0.83173 0.44357 -0.33387
0.83207 0.44356 -0.33304
0.83205 0.44376 -0.33281
0.83173 0.44357 -0.33387
0.83205 0.44376 -0.33281
0.83209 0.4445 -0.33173
0.83205 0.44376 -0.33282
0.8319 0.44354 -0.33348
0.83209 0.4445 -0.33173
0.83203 0.44367 -0.333
0.83205 0.44376 -0.33282
0.83196 0.44383 -0.33294
0.83203 0.44367 -0.333
0.83205 0.44376 -0.33282
0.83203 0.44376 -0.33286
0.83191 0.44343 -0.3336
0.83203 0.44376 -0.33286
0.83201 0.44389 -0.33274
0.83205 0.44382 -0.33274
0.83206 0.44376 -0.3328
0.83205 0.44376 -0.33283
0.83205 0.44376 -0.33283
0.83205 0.44382 -0.33274
0.83205 0.44376 -0.33282
0.83204 0.4437 -0.33292
0.83205 0.44376 -0.33282
0.83204 0.4437 -0.33292
0.83192 0.44356 -0.33343
0.83122 0.44433 -0.33414
0.83232 0.44319 -0.3329
0.83175 0.44393 -0.33333
0.83166 0.44338 -0.33429
0.83232 0.44364 -0.33232
0.83166 0.44338 -0.33429
0.83211 0.44372 -0.33273
0.83226 0.44369 -0.33238
0.83115 0.4435 -0.33541
0.83231 0.44372 -0.33222
0.83115 0.4435 -0.33541
0.83182 0.44493 -0.33183
0.83189 0.44372 -0.33328
0.83237 0.44393 -0.3318
0.83069 0.44393 -0.33597
0.82991 0.44184 -0.34062
0.83212 0.44376 -0.33265
0.83184 0.44347 -0.33373
0.83132 0.444 -0.33433
0.82863 0.44531 -0.33922
0.83135 0.44457 -0.33348
0.8313 0.44408 -0.33426
0.83243 0.44346 -0.33227
0.84413 0.47587 -0.24697
0.83433 0.43659 -0.33658
0.827 0.44919 -0.33807
0.83252 0.44349 -0.33201
0.83062 0.44541 -0.33419
0.83309 0.44235 -0.33208
0.83207 0.44384 -0.33266
0.82779 0.45072 -0.33409
0.83114 0.44435 -0.33431
0.83329 0.44276 -0.33104
0.83209 0.44403 -0.33235
0.83329 0.44276 -0.33104
0.83191 0.44391 -0.33297
0.83219 0.44305 -0.33341
0.83198 0.44662 -0.32914
0.83245 0.44333 -0.3324
0.83207 0.44295 -0.33386
0.83364 0.44218 -0.33094
0.83245 0.44333 -0.3324
0.83206 0.44395 -0.33254
0.81919 0.507 -0.26811
0.83196 0.44422 -0.33243
0.83196 0.44422 -0.33243
0.83223 0.44311 -0.33322
0.80321 0.52036 -0.28997
0.83178 0.44452 -0.33249
0.7968 0.52243 -0.3036
0.8335 0.44071 -0.33324
0.83204 0.44378 -0.33281
0.83161 0.44468 -0.33271
0.83381 0.44005 -0.33333
0.79079 0.52339 -0.31734
0.8323 0.44326 -0.33286
0.78508 0.52328 -0.33141
0.8319 0.44403 -0.33284
0.8319 0.44403 -0.33284
0.832 0.44383 -0.33284
0.77913 0.51358 -0.35943
0.83217 0.44359 -0.33273
0.83206 0.44375 -0.33281
0.77813 0.49675 -0.38439
0.83203 0.44378 -0.33284
0.77978 0.4859 -0.39477
0.83137 0.44516 -0.33265
0.83216 0.44367 -0.33266
0.83172 0.44446 -0.33273
0.78234 0.47414 -0.4039
0.83204 0.44377 -0.33283
0.83113 0.44548 -0.33281
0.78634 0.4613 -0.41094
0.83161 0.44468 -0.33271
0.83214 0.44373 -0.33264
0.79199 0.44782 -0.41497
0.83162 0.44476 -0.33255
0.83207 0.44377 -0.33276
0.83183 0.44435 -0.3326
0.83202 0.44386 -0.33277
0.8535 0.36465 -0.37225
0.83205 0.44376 -0.33283
0.83205 0.44376 -0.33283
0.83211 0.44384 -0.33256
0.83204 0.44375 -0.33285
0.83206 0.4438 -0.33273
0.83201 0.44389 -0.33274
0.83205 0.44379 -0.33277
0.83206 0.44388 -0.33264
0.83208 0.4436 -0.33295
0.83203 0.44393 -0.33266
0.83205 0.44377 -0.33281
0.83368 0.44099 -0.33242
0.82974 0.44766 -0.33337
0.83053 0.44633 -0.33319
0.83386 0.44062 -0.33246
0.83294 0.44228 -0.33256
0.83276 0.44242 -0.33282
0.83545 0.43796 -0.33199
0.83294 0.44228 -0.33256
0.82956 0.44838 -0.33285
0.83138 0.44563 -0.332
0.83232 0.44319 -0.3329
0.83138 0.44563 -0.332
0.87864 0.37855 -0.29103
0.83195 0.4439 -0.33289
0.83196 0.44383 -0.33294
0.83209 0.44403 -0.33235
0.83207 0.44384 -0.33266
0.83207 0.44377 -0.33276
0.83217 0.44359 -0.33273
0.83201 0.44376 -0.33292
0.83229 0.44326 -0.33288
0.82786 0.45085 -0.33373
0.83093 0.44608 -0.33253
0.83381 0.44005 -0.33333
0.83161 0.44468 -0.33271
0.87204 0.36027 -0.3313
0.83001 0.44682 -0.33381
0.83172 0.44446 -0.33273
0.8335 0.44071 -0.33324
0.83137 0.44516 -0.33265
0.82974 0.44766 -0.33337
0.83218 0.44388 -0.33233
0.83184 0.44347 -0.33373
0.83207 0.44295 -0.33386
0.83001 0.44682 -0.33381
0.83206 0.44375 -0.33281
0.83205 0.44379 -0.33279
0.83204 0.44388 -0.33269
0.83296 0.44204 -0.33283
0.83294 0.44228 -0.33256
0.83111 0.44577 -0.33249
0.8369 0.43457 -0.33279
0.87839 0.36957 -0.30306
0.83087 0.44513 -0.33393
0.83201 0.44389 -0.33274
